%YAML 1.1
%TAG !u! tag:unity3d.com,2011:
--- !u!114 &11400000
MonoBehaviour:
  m_ObjectHideFlags: 0
  m_CorrespondingSourceObject: {fileID: 0}
  m_PrefabInstance: {fileID: 0}
  m_PrefabAsset: {fileID: 0}
  m_GameObject: {fileID: 0}
  m_Enabled: 1
  m_EditorHideFlags: 0
  m_Script: {fileID: 11500000, guid: 6fbaa9f795bb5a548bf8dc0e08bfa897, type: 3}
  m_Name: Meteorite_1
  m_EditorClassIdentifier: 
  objName: Shootable Object
  objType: 1
  hpMax: 2
  dropList:
  - itemSO: {fileID: 11400000, guid: 082111a812ddbc04fa11365f199e9454, type: 2}
    dropRate: 0
    minDrop: 0
    maxDrop: 0
