%YAML 1.1
%TAG !u! tag:unity3d.com,2011:
--- !u!29 &1
OcclusionCullingSettings:
  m_ObjectHideFlags: 0
  serializedVersion: 2
  m_OcclusionBakeSettings:
    smallestOccluder: 5
    smallestHole: 0.25
    backfaceThreshold: 100
  m_SceneGUID: 00000000000000000000000000000000
  m_OcclusionCullingData: {fileID: 0}
--- !u!104 &2
RenderSettings:
  m_ObjectHideFlags: 0
  serializedVersion: 9
  m_Fog: 0
  m_FogColor: {r: 0.5, g: 0.5, b: 0.5, a: 1}
  m_FogMode: 3
  m_FogDensity: 0.01
  m_LinearFogStart: 0
  m_LinearFogEnd: 300
  m_AmbientSkyColor: {r: 0.212, g: 0.227, b: 0.259, a: 1}
  m_AmbientEquatorColor: {r: 0.114, g: 0.125, b: 0.133, a: 1}
  m_AmbientGroundColor: {r: 0.047, g: 0.043, b: 0.035, a: 1}
  m_AmbientIntensity: 1
  m_AmbientMode: 3
  m_SubtractiveShadowColor: {r: 0.42, g: 0.478, b: 0.627, a: 1}
  m_SkyboxMaterial: {fileID: 0}
  m_HaloStrength: 0.5
  m_FlareStrength: 1
  m_FlareFadeSpeed: 3
  m_HaloTexture: {fileID: 0}
  m_SpotCookie: {fileID: 10001, guid: 0000000000000000e000000000000000, type: 0}
  m_DefaultReflectionMode: 0
  m_DefaultReflectionResolution: 128
  m_ReflectionBounces: 1
  m_ReflectionIntensity: 1
  m_CustomReflection: {fileID: 0}
  m_Sun: {fileID: 0}
  m_IndirectSpecularColor: {r: 0, g: 0, b: 0, a: 1}
  m_UseRadianceAmbientProbe: 0
--- !u!157 &3
LightmapSettings:
  m_ObjectHideFlags: 0
  serializedVersion: 12
  m_GIWorkflowMode: 1
  m_GISettings:
    serializedVersion: 2
    m_BounceScale: 1
    m_IndirectOutputScale: 1
    m_AlbedoBoost: 1
    m_EnvironmentLightingMode: 0
    m_EnableBakedLightmaps: 0
    m_EnableRealtimeLightmaps: 0
  m_LightmapEditorSettings:
    serializedVersion: 12
    m_Resolution: 2
    m_BakeResolution: 40
    m_AtlasSize: 1024
    m_AO: 0
    m_AOMaxDistance: 1
    m_CompAOExponent: 1
    m_CompAOExponentDirect: 0
    m_ExtractAmbientOcclusion: 0
    m_Padding: 2
    m_LightmapParameters: {fileID: 0}
    m_LightmapsBakeMode: 1
    m_TextureCompression: 1
    m_FinalGather: 0
    m_FinalGatherFiltering: 1
    m_FinalGatherRayCount: 256
    m_ReflectionCompression: 2
    m_MixedBakeMode: 1
    m_BakeBackend: 0
    m_PVRSampling: 1
    m_PVRDirectSampleCount: 32
    m_PVRSampleCount: 500
    m_PVRBounces: 2
    m_PVREnvironmentSampleCount: 500
    m_PVREnvironmentReferencePointCount: 2048
    m_PVRFilteringMode: 0
    m_PVRDenoiserTypeDirect: 0
    m_PVRDenoiserTypeIndirect: 0
    m_PVRDenoiserTypeAO: 0
    m_PVRFilterTypeDirect: 0
    m_PVRFilterTypeIndirect: 0
    m_PVRFilterTypeAO: 0
    m_PVREnvironmentMIS: 0
    m_PVRCulling: 1
    m_PVRFilteringGaussRadiusDirect: 1
    m_PVRFilteringGaussRadiusIndirect: 5
    m_PVRFilteringGaussRadiusAO: 2
    m_PVRFilteringAtrousPositionSigmaDirect: 0.5
    m_PVRFilteringAtrousPositionSigmaIndirect: 2
    m_PVRFilteringAtrousPositionSigmaAO: 1
    m_ExportTrainingData: 0
    m_TrainingDataDestination: TrainingData
    m_LightProbeSampleCountMultiplier: 4
  m_LightingDataAsset: {fileID: 0}
  m_LightingSettings: {fileID: 4890085278179872738, guid: 9274ad35f6b27244ba0ff7fe198ff535, type: 2}
--- !u!196 &4
NavMeshSettings:
  serializedVersion: 2
  m_ObjectHideFlags: 0
  m_BuildSettings:
    serializedVersion: 3
    agentTypeID: 0
    agentRadius: 0.5
    agentHeight: 2
    agentSlope: 45
    agentClimb: 0.4
    ledgeDropHeight: 0
    maxJumpAcrossDistance: 0
    minRegionArea: 2
    manualCellSize: 0
    cellSize: 0.16666667
    manualTileSize: 0
    tileSize: 256
    buildHeightMesh: 0
    maxJobWorkers: 0
    preserveTilesOutsideBounds: 0
    debug:
      m_Flags: 0
  m_NavMeshData: {fileID: 0}
--- !u!1 &51375156
GameObject:
  m_ObjectHideFlags: 0
  m_CorrespondingSourceObject: {fileID: 0}
  m_PrefabInstance: {fileID: 0}
  m_PrefabAsset: {fileID: 0}
  serializedVersion: 6
  m_Component:
  - component: {fileID: 51375157}
  - component: {fileID: 51375159}
  - component: {fileID: 51375158}
  m_Layer: 0
  m_Name: Point
  m_TagString: Untagged
  m_Icon: {fileID: 0}
  m_NavMeshLayer: 0
  m_StaticEditorFlags: 0
  m_IsActive: 1
--- !u!4 &51375157
Transform:
  m_ObjectHideFlags: 0
  m_CorrespondingSourceObject: {fileID: 0}
  m_PrefabInstance: {fileID: 0}
  m_PrefabAsset: {fileID: 0}
  m_GameObject: {fileID: 51375156}
  serializedVersion: 2
  m_LocalRotation: {x: 0, y: 0, z: 0.043619387, w: 0.99904823}
  m_LocalPosition: {x: 40, y: 0, z: 0}
  m_LocalScale: {x: 0.2, y: 0.2, z: 1}
  m_ConstrainProportionsScale: 0
  m_Children: []
  m_Father: {fileID: 1794016484}
  m_LocalEulerAnglesHint: {x: 0, y: 0, z: 0}
--- !u!114 &51375158
MonoBehaviour:
  m_ObjectHideFlags: 0
  m_CorrespondingSourceObject: {fileID: 0}
  m_PrefabInstance: {fileID: 0}
  m_PrefabAsset: {fileID: 0}
  m_GameObject: {fileID: 51375156}
  m_Enabled: 1
  m_EditorHideFlags: 0
  m_Script: {fileID: 11500000, guid: 6875f8caadce09f4499a8b1facf17c27, type: 3}
  m_Name: 
  m_EditorClassIdentifier: 
  makeNodeOnly: 0
  LocalPitch: 0
  customIndicator: {fileID: 0}
  Shot: {fileID: 1004262627135494, guid: 8e1ec1a59ca416c4b9b57022b1b2f213, type: 3}
  ShotSpeed: 6
  LocalOffset: 0
  controller: {fileID: 0}
  OnStoppedFiring:
    m_PersistentCalls:
      m_Calls: []
  SpriteColor: {r: 1, g: 1, b: 1, a: 1}
  SpriteOverride: {fileID: 0}
  ParentToEmitter: 0
  IgnoreGlobalRateScale: 0
  ShotRate: 30
  PauseRate: 100
  PauseLength: 2
  ShotOverlap: -1
  _poolingEnabled: 1
  AutoPool: 0
  AutoPoolOverride: 0
  BankingEnabled: 1
--- !u!212 &51375159
SpriteRenderer:
  m_ObjectHideFlags: 0
  m_CorrespondingSourceObject: {fileID: 0}
  m_PrefabInstance: {fileID: 0}
  m_PrefabAsset: {fileID: 0}
  m_GameObject: {fileID: 51375156}
  m_Enabled: 1
  m_CastShadows: 0
  m_ReceiveShadows: 0
  m_DynamicOccludee: 1
  m_StaticShadowCaster: 0
  m_MotionVectors: 1
  m_LightProbeUsage: 0
  m_ReflectionProbeUsage: 0
  m_RayTracingMode: 0
  m_RayTraceProcedural: 0
  m_RenderingLayerMask: 1
  m_RendererPriority: 0
  m_Materials:
  - {fileID: 10754, guid: 0000000000000000f000000000000000, type: 0}
  m_StaticBatchInfo:
    firstSubMesh: 0
    subMeshCount: 0
  m_StaticBatchRoot: {fileID: 0}
  m_ProbeAnchor: {fileID: 0}
  m_LightProbeVolumeOverride: {fileID: 0}
  m_ScaleInLightmap: 1
  m_ReceiveGI: 1
  m_PreserveUVs: 0
  m_IgnoreNormalsForChartDetection: 0
  m_ImportantGI: 0
  m_StitchLightmapSeams: 1
  m_SelectedEditorRenderState: 0
  m_MinimumChartSize: 4
  m_AutoUVMaxDistance: 0.5
  m_AutoUVMaxAngle: 89
  m_LightmapParameters: {fileID: 0}
  m_SortingLayerID: 950124507
  m_SortingLayer: 0
  m_SortingOrder: 10089
  m_Sprite: {fileID: 21300000, guid: 0028a729cfda88245aba79c93755b4e5, type: 3}
  m_Color: {r: 1, g: 1, b: 1, a: 0.51}
  m_FlipX: 0
  m_FlipY: 0
  m_DrawMode: 0
  m_Size: {x: 1, y: 1}
  m_AdaptiveModeThreshold: 0.5
  m_SpriteTileMode: 0
  m_WasSpriteAssigned: 1
  m_MaskInteraction: 0
  m_SpriteSortPoint: 0
--- !u!1001 &126476228
PrefabInstance:
  m_ObjectHideFlags: 0
  serializedVersion: 2
  m_Modification:
    serializedVersion: 3
    m_TransformParent: {fileID: 933200360}
    m_Modifications:
    - target: {fileID: 4000011465702616, guid: 5d5a70f9bf23cff40b76aa2464691e73, type: 3}
      propertyPath: m_RootOrder
      value: 0
      objectReference: {fileID: 0}
    - target: {fileID: 4000011465702616, guid: 5d5a70f9bf23cff40b76aa2464691e73, type: 3}
      propertyPath: m_LocalPosition.x
      value: 0
      objectReference: {fileID: 0}
    - target: {fileID: 4000011465702616, guid: 5d5a70f9bf23cff40b76aa2464691e73, type: 3}
      propertyPath: m_LocalPosition.y
      value: 0
      objectReference: {fileID: 0}
    - target: {fileID: 4000011465702616, guid: 5d5a70f9bf23cff40b76aa2464691e73, type: 3}
      propertyPath: m_LocalPosition.z
      value: 0
      objectReference: {fileID: 0}
    - target: {fileID: 4000011465702616, guid: 5d5a70f9bf23cff40b76aa2464691e73, type: 3}
      propertyPath: m_LocalRotation.w
      value: 1
      objectReference: {fileID: 0}
    - target: {fileID: 4000011465702616, guid: 5d5a70f9bf23cff40b76aa2464691e73, type: 3}
      propertyPath: m_LocalRotation.x
      value: 0
      objectReference: {fileID: 0}
    - target: {fileID: 4000011465702616, guid: 5d5a70f9bf23cff40b76aa2464691e73, type: 3}
      propertyPath: m_LocalRotation.y
      value: 0
      objectReference: {fileID: 0}
    - target: {fileID: 4000011465702616, guid: 5d5a70f9bf23cff40b76aa2464691e73, type: 3}
      propertyPath: m_LocalRotation.z
      value: 0
      objectReference: {fileID: 0}
    - target: {fileID: 4000012973986434, guid: 5d5a70f9bf23cff40b76aa2464691e73, type: 3}
      propertyPath: m_LocalPosition.x
      value: -40
      objectReference: {fileID: 0}
    - target: {fileID: 4000012973986434, guid: 5d5a70f9bf23cff40b76aa2464691e73, type: 3}
      propertyPath: m_LocalRotation.w
      value: 1
      objectReference: {fileID: 0}
    - target: {fileID: 4000012973986434, guid: 5d5a70f9bf23cff40b76aa2464691e73, type: 3}
      propertyPath: m_LocalRotation.z
      value: 0
      objectReference: {fileID: 0}
    - target: {fileID: 114000012688441186, guid: 5d5a70f9bf23cff40b76aa2464691e73, type: 3}
      propertyPath: Pitch
      value: -5
      objectReference: {fileID: 0}
    - target: {fileID: 114000012688441186, guid: 5d5a70f9bf23cff40b76aa2464691e73, type: 3}
      propertyPath: Preset
      value: 0
      objectReference: {fileID: 0}
    - target: {fileID: 114000012688441186, guid: 5d5a70f9bf23cff40b76aa2464691e73, type: 3}
      propertyPath: sortLayer
      value: 1
      objectReference: {fileID: 0}
    - target: {fileID: 114000012688441186, guid: 5d5a70f9bf23cff40b76aa2464691e73, type: 3}
      propertyPath: autoCenter
      value: 1
      objectReference: {fileID: 0}
    - target: {fileID: 114000012688441186, guid: 5d5a70f9bf23cff40b76aa2464691e73, type: 3}
      propertyPath: FireCommand
      value: 2
      objectReference: {fileID: 0}
    - target: {fileID: 114000012688441186, guid: 5d5a70f9bf23cff40b76aa2464691e73, type: 3}
      propertyPath: SpreadXAxis
      value: 0
      objectReference: {fileID: 0}
    - target: {fileID: 114000012688441186, guid: 5d5a70f9bf23cff40b76aa2464691e73, type: 3}
      propertyPath: SpreadYAxis
      value: -0.5
      objectReference: {fileID: 0}
    - target: {fileID: 114000012688441186, guid: 5d5a70f9bf23cff40b76aa2464691e73, type: 3}
      propertyPath: SpreadRadius
      value: 40
      objectReference: {fileID: 0}
    - target: {fileID: 114000012688441186, guid: 5d5a70f9bf23cff40b76aa2464691e73, type: 3}
      propertyPath: EmitterAmount
      value: 15
      objectReference: {fileID: 0}
    - target: {fileID: 114000012688441186, guid: 5d5a70f9bf23cff40b76aa2464691e73, type: 3}
      propertyPath: SpreadDegrees
      value: 5
      objectReference: {fileID: 0}
    - target: {fileID: 114000012688441186, guid: 5d5a70f9bf23cff40b76aa2464691e73, type: 3}
      propertyPath: patternSelect
      value: 0
      objectReference: {fileID: 0}
    - target: {fileID: 114000012688441186, guid: 5d5a70f9bf23cff40b76aa2464691e73, type: 3}
      propertyPath: AutoCompRadius
      value: 1
      objectReference: {fileID: 0}
    - target: {fileID: 114000012688441186, guid: 5d5a70f9bf23cff40b76aa2464691e73, type: 3}
      propertyPath: CenterRotation
      value: 0
      objectReference: {fileID: 0}
    - target: {fileID: 114000012688441186, guid: 5d5a70f9bf23cff40b76aa2464691e73, type: 3}
      propertyPath: ParentRotation
      value: -90
      objectReference: {fileID: 0}
    - target: {fileID: 114000012688441186, guid: 5d5a70f9bf23cff40b76aa2464691e73, type: 3}
      propertyPath: ExitPointOffset
      value: -10
      objectReference: {fileID: 0}
    - target: {fileID: 114000012688441186, guid: 5d5a70f9bf23cff40b76aa2464691e73, type: 3}
      propertyPath: TriggerAutoFire
      value: 1
      objectReference: {fileID: 0}
    - target: {fileID: 114000012688441186, guid: 5d5a70f9bf23cff40b76aa2464691e73, type: 3}
      propertyPath: AutoRadiusToSprite
      value: 0
      objectReference: {fileID: 0}
    m_RemovedComponents: []
    m_RemovedGameObjects: []
    m_AddedGameObjects:
    - targetCorrespondingSourceObject: {fileID: 4000012973986434, guid: 5d5a70f9bf23cff40b76aa2464691e73, type: 3}
      insertIndex: -1
      addedObject: {fileID: 1405975981}
    - targetCorrespondingSourceObject: {fileID: 4000012973986434, guid: 5d5a70f9bf23cff40b76aa2464691e73, type: 3}
      insertIndex: -1
      addedObject: {fileID: 594174459}
    - targetCorrespondingSourceObject: {fileID: 4000012973986434, guid: 5d5a70f9bf23cff40b76aa2464691e73, type: 3}
      insertIndex: -1
      addedObject: {fileID: 1069109006}
    - targetCorrespondingSourceObject: {fileID: 4000012973986434, guid: 5d5a70f9bf23cff40b76aa2464691e73, type: 3}
      insertIndex: -1
      addedObject: {fileID: 688563384}
    - targetCorrespondingSourceObject: {fileID: 4000012973986434, guid: 5d5a70f9bf23cff40b76aa2464691e73, type: 3}
      insertIndex: -1
      addedObject: {fileID: 1856815644}
    - targetCorrespondingSourceObject: {fileID: 4000012973986434, guid: 5d5a70f9bf23cff40b76aa2464691e73, type: 3}
      insertIndex: -1
      addedObject: {fileID: 420942374}
    - targetCorrespondingSourceObject: {fileID: 4000012973986434, guid: 5d5a70f9bf23cff40b76aa2464691e73, type: 3}
      insertIndex: -1
      addedObject: {fileID: 1711729641}
    - targetCorrespondingSourceObject: {fileID: 4000012973986434, guid: 5d5a70f9bf23cff40b76aa2464691e73, type: 3}
      insertIndex: -1
      addedObject: {fileID: 1830550257}
    - targetCorrespondingSourceObject: {fileID: 4000012973986434, guid: 5d5a70f9bf23cff40b76aa2464691e73, type: 3}
      insertIndex: -1
      addedObject: {fileID: 1982574961}
    - targetCorrespondingSourceObject: {fileID: 4000012973986434, guid: 5d5a70f9bf23cff40b76aa2464691e73, type: 3}
      insertIndex: -1
      addedObject: {fileID: 1523408019}
    - targetCorrespondingSourceObject: {fileID: 4000012973986434, guid: 5d5a70f9bf23cff40b76aa2464691e73, type: 3}
      insertIndex: -1
      addedObject: {fileID: 763272617}
    - targetCorrespondingSourceObject: {fileID: 4000012973986434, guid: 5d5a70f9bf23cff40b76aa2464691e73, type: 3}
      insertIndex: -1
      addedObject: {fileID: 858848063}
    - targetCorrespondingSourceObject: {fileID: 4000012973986434, guid: 5d5a70f9bf23cff40b76aa2464691e73, type: 3}
      insertIndex: -1
      addedObject: {fileID: 1794016484}
    - targetCorrespondingSourceObject: {fileID: 4000012973986434, guid: 5d5a70f9bf23cff40b76aa2464691e73, type: 3}
      insertIndex: -1
      addedObject: {fileID: 1575847847}
    - targetCorrespondingSourceObject: {fileID: 4000012973986434, guid: 5d5a70f9bf23cff40b76aa2464691e73, type: 3}
      insertIndex: -1
      addedObject: {fileID: 2019346844}
    m_AddedComponents:
    - targetCorrespondingSourceObject: {fileID: 1000013902785618, guid: 5d5a70f9bf23cff40b76aa2464691e73, type: 3}
      insertIndex: -1
      addedObject: {fileID: 2076180606}
  m_SourcePrefab: {fileID: 100100000, guid: 5d5a70f9bf23cff40b76aa2464691e73, type: 3}
--- !u!1 &145557949
GameObject:
  m_ObjectHideFlags: 0
  m_CorrespondingSourceObject: {fileID: 0}
  m_PrefabInstance: {fileID: 0}
  m_PrefabAsset: {fileID: 0}
  serializedVersion: 6
  m_Component:
  - component: {fileID: 145557950}
  - component: {fileID: 145557952}
  - component: {fileID: 145557951}
  m_Layer: 0
  m_Name: Point
  m_TagString: Untagged
  m_Icon: {fileID: 0}
  m_NavMeshLayer: 0
  m_StaticEditorFlags: 0
  m_IsActive: 1
--- !u!4 &145557950
Transform:
  m_ObjectHideFlags: 0
  m_CorrespondingSourceObject: {fileID: 0}
  m_PrefabInstance: {fileID: 0}
  m_PrefabAsset: {fileID: 0}
  m_GameObject: {fileID: 145557949}
  serializedVersion: 2
  m_LocalRotation: {x: 0, y: 0, z: -0.043619387, w: 0.99904823}
  m_LocalPosition: {x: 40, y: 0, z: 0}
  m_LocalScale: {x: 0.2, y: 0.2, z: 1}
  m_ConstrainProportionsScale: 0
  m_Children: []
  m_Father: {fileID: 688563384}
  m_LocalEulerAnglesHint: {x: 0, y: 0, z: 0}
--- !u!114 &145557951
MonoBehaviour:
  m_ObjectHideFlags: 0
  m_CorrespondingSourceObject: {fileID: 0}
  m_PrefabInstance: {fileID: 0}
  m_PrefabAsset: {fileID: 0}
  m_GameObject: {fileID: 145557949}
  m_Enabled: 1
  m_EditorHideFlags: 0
  m_Script: {fileID: 11500000, guid: 6875f8caadce09f4499a8b1facf17c27, type: 3}
  m_Name: 
  m_EditorClassIdentifier: 
  makeNodeOnly: 0
  LocalPitch: 0
  customIndicator: {fileID: 0}
  Shot: {fileID: 1004262627135494, guid: 8e1ec1a59ca416c4b9b57022b1b2f213, type: 3}
  ShotSpeed: 6
  LocalOffset: 0
  controller: {fileID: 0}
  OnStoppedFiring:
    m_PersistentCalls:
      m_Calls: []
  SpriteColor: {r: 1, g: 1, b: 1, a: 1}
  SpriteOverride: {fileID: 0}
  ParentToEmitter: 0
  IgnoreGlobalRateScale: 0
  ShotRate: 30
  PauseRate: 100
  PauseLength: 2
  ShotOverlap: -1
  _poolingEnabled: 1
  AutoPool: 0
  AutoPoolOverride: 0
  BankingEnabled: 1
--- !u!212 &145557952
SpriteRenderer:
  m_ObjectHideFlags: 0
  m_CorrespondingSourceObject: {fileID: 0}
  m_PrefabInstance: {fileID: 0}
  m_PrefabAsset: {fileID: 0}
  m_GameObject: {fileID: 145557949}
  m_Enabled: 1
  m_CastShadows: 0
  m_ReceiveShadows: 0
  m_DynamicOccludee: 1
  m_StaticShadowCaster: 0
  m_MotionVectors: 1
  m_LightProbeUsage: 0
  m_ReflectionProbeUsage: 0
  m_RayTracingMode: 0
  m_RayTraceProcedural: 0
  m_RenderingLayerMask: 1
  m_RendererPriority: 0
  m_Materials:
  - {fileID: 10754, guid: 0000000000000000f000000000000000, type: 0}
  m_StaticBatchInfo:
    firstSubMesh: 0
    subMeshCount: 0
  m_StaticBatchRoot: {fileID: 0}
  m_ProbeAnchor: {fileID: 0}
  m_LightProbeVolumeOverride: {fileID: 0}
  m_ScaleInLightmap: 1
  m_ReceiveGI: 1
  m_PreserveUVs: 0
  m_IgnoreNormalsForChartDetection: 0
  m_ImportantGI: 0
  m_StitchLightmapSeams: 1
  m_SelectedEditorRenderState: 0
  m_MinimumChartSize: 4
  m_AutoUVMaxDistance: 0.5
  m_AutoUVMaxAngle: 89
  m_LightmapParameters: {fileID: 0}
  m_SortingLayerID: 950124507
  m_SortingLayer: 0
  m_SortingOrder: 10029
  m_Sprite: {fileID: 21300000, guid: 0028a729cfda88245aba79c93755b4e5, type: 3}
  m_Color: {r: 1, g: 1, b: 1, a: 0.51}
  m_FlipX: 0
  m_FlipY: 0
  m_DrawMode: 0
  m_Size: {x: 1, y: 1}
  m_AdaptiveModeThreshold: 0.5
  m_SpriteTileMode: 0
  m_WasSpriteAssigned: 1
  m_MaskInteraction: 0
  m_SpriteSortPoint: 0
--- !u!1 &287416965
GameObject:
  m_ObjectHideFlags: 0
  m_CorrespondingSourceObject: {fileID: 0}
  m_PrefabInstance: {fileID: 0}
  m_PrefabAsset: {fileID: 0}
  serializedVersion: 6
  m_Component:
  - component: {fileID: 287416967}
  - component: {fileID: 287416966}
  m_Layer: 0
  m_Name: BG_Grid
  m_TagString: Untagged
  m_Icon: {fileID: 0}
  m_NavMeshLayer: 0
  m_StaticEditorFlags: 0
  m_IsActive: 1
--- !u!212 &287416966
SpriteRenderer:
  m_ObjectHideFlags: 0
  m_CorrespondingSourceObject: {fileID: 0}
  m_PrefabInstance: {fileID: 0}
  m_PrefabAsset: {fileID: 0}
  m_GameObject: {fileID: 287416965}
  m_Enabled: 1
  m_CastShadows: 0
  m_ReceiveShadows: 0
  m_DynamicOccludee: 1
  m_StaticShadowCaster: 0
  m_MotionVectors: 1
  m_LightProbeUsage: 1
  m_ReflectionProbeUsage: 1
  m_RayTracingMode: 0
  m_RayTraceProcedural: 0
  m_RenderingLayerMask: 1
  m_RendererPriority: 0
  m_Materials:
  - {fileID: 10754, guid: 0000000000000000f000000000000000, type: 0}
  m_StaticBatchInfo:
    firstSubMesh: 0
    subMeshCount: 0
  m_StaticBatchRoot: {fileID: 0}
  m_ProbeAnchor: {fileID: 0}
  m_LightProbeVolumeOverride: {fileID: 0}
  m_ScaleInLightmap: 1
  m_ReceiveGI: 1
  m_PreserveUVs: 0
  m_IgnoreNormalsForChartDetection: 0
  m_ImportantGI: 0
  m_StitchLightmapSeams: 1
  m_SelectedEditorRenderState: 0
  m_MinimumChartSize: 4
  m_AutoUVMaxDistance: 0.5
  m_AutoUVMaxAngle: 89
  m_LightmapParameters: {fileID: 0}
  m_SortingLayerID: 0
  m_SortingLayer: 0
  m_SortingOrder: -1
  m_Sprite: {fileID: 21300000, guid: 42d781f264958e149b9d4600fe1bb2f6, type: 3}
  m_Color: {r: 0.26600346, g: 0.41737294, b: 0.60294116, a: 0.83}
  m_FlipX: 0
  m_FlipY: 0
  m_DrawMode: 0
  m_Size: {x: 192, y: 108}
  m_AdaptiveModeThreshold: 0.5
  m_SpriteTileMode: 0
  m_WasSpriteAssigned: 1
  m_MaskInteraction: 0
  m_SpriteSortPoint: 0
--- !u!4 &287416967
Transform:
  m_ObjectHideFlags: 0
  m_CorrespondingSourceObject: {fileID: 0}
  m_PrefabInstance: {fileID: 0}
  m_PrefabAsset: {fileID: 0}
  m_GameObject: {fileID: 287416965}
  serializedVersion: 2
  m_LocalRotation: {x: 0, y: 0, z: 0, w: 1}
  m_LocalPosition: {x: 0, y: 0, z: 0}
  m_LocalScale: {x: 1, y: 1, z: 1}
  m_ConstrainProportionsScale: 0
  m_Children: []
  m_Father: {fileID: 0}
  m_LocalEulerAnglesHint: {x: 0, y: 0, z: 0}
--- !u!1 &299013188
GameObject:
  m_ObjectHideFlags: 0
  m_CorrespondingSourceObject: {fileID: 0}
  m_PrefabInstance: {fileID: 0}
  m_PrefabAsset: {fileID: 0}
  serializedVersion: 6
  m_Component:
  - component: {fileID: 299013189}
  - component: {fileID: 299013191}
  - component: {fileID: 299013190}
  m_Layer: 0
  m_Name: Point
  m_TagString: Untagged
  m_Icon: {fileID: 0}
  m_NavMeshLayer: 0
  m_StaticEditorFlags: 0
  m_IsActive: 1
--- !u!4 &299013189
Transform:
  m_ObjectHideFlags: 0
  m_CorrespondingSourceObject: {fileID: 0}
  m_PrefabInstance: {fileID: 0}
  m_PrefabAsset: {fileID: 0}
  m_GameObject: {fileID: 299013188}
  serializedVersion: 2
  m_LocalRotation: {x: 0, y: 0, z: -0.043619387, w: 0.99904823}
  m_LocalPosition: {x: 40, y: 0, z: 0}
  m_LocalScale: {x: 0.2, y: 0.2, z: 1}
  m_ConstrainProportionsScale: 0
  m_Children: []
  m_Father: {fileID: 1405975981}
  m_LocalEulerAnglesHint: {x: 0, y: 0, z: 0}
--- !u!114 &299013190
MonoBehaviour:
  m_ObjectHideFlags: 0
  m_CorrespondingSourceObject: {fileID: 0}
  m_PrefabInstance: {fileID: 0}
  m_PrefabAsset: {fileID: 0}
  m_GameObject: {fileID: 299013188}
  m_Enabled: 1
  m_EditorHideFlags: 0
  m_Script: {fileID: 11500000, guid: 6875f8caadce09f4499a8b1facf17c27, type: 3}
  m_Name: 
  m_EditorClassIdentifier: 
  makeNodeOnly: 0
  LocalPitch: 0
  customIndicator: {fileID: 0}
  Shot: {fileID: 1004262627135494, guid: 8e1ec1a59ca416c4b9b57022b1b2f213, type: 3}
  ShotSpeed: 6
  LocalOffset: 0
  controller: {fileID: 0}
  OnStoppedFiring:
    m_PersistentCalls:
      m_Calls: []
  SpriteColor: {r: 1, g: 1, b: 1, a: 1}
  SpriteOverride: {fileID: 0}
  ParentToEmitter: 0
  IgnoreGlobalRateScale: 0
  ShotRate: 30
  PauseRate: 100
  PauseLength: 2
  ShotOverlap: -1
  _poolingEnabled: 1
  AutoPool: 0
  AutoPoolOverride: 0
  BankingEnabled: 1
--- !u!212 &299013191
SpriteRenderer:
  m_ObjectHideFlags: 0
  m_CorrespondingSourceObject: {fileID: 0}
  m_PrefabInstance: {fileID: 0}
  m_PrefabAsset: {fileID: 0}
  m_GameObject: {fileID: 299013188}
  m_Enabled: 1
  m_CastShadows: 0
  m_ReceiveShadows: 0
  m_DynamicOccludee: 1
  m_StaticShadowCaster: 0
  m_MotionVectors: 1
  m_LightProbeUsage: 0
  m_ReflectionProbeUsage: 0
  m_RayTracingMode: 0
  m_RayTraceProcedural: 0
  m_RenderingLayerMask: 1
  m_RendererPriority: 0
  m_Materials:
  - {fileID: 10754, guid: 0000000000000000f000000000000000, type: 0}
  m_StaticBatchInfo:
    firstSubMesh: 0
    subMeshCount: 0
  m_StaticBatchRoot: {fileID: 0}
  m_ProbeAnchor: {fileID: 0}
  m_LightProbeVolumeOverride: {fileID: 0}
  m_ScaleInLightmap: 1
  m_ReceiveGI: 1
  m_PreserveUVs: 0
  m_IgnoreNormalsForChartDetection: 0
  m_ImportantGI: 0
  m_StitchLightmapSeams: 1
  m_SelectedEditorRenderState: 0
  m_MinimumChartSize: 4
  m_AutoUVMaxDistance: 0.5
  m_AutoUVMaxAngle: 89
  m_LightmapParameters: {fileID: 0}
  m_SortingLayerID: 950124507
  m_SortingLayer: 0
  m_SortingOrder: 10009
  m_Sprite: {fileID: 21300000, guid: 0028a729cfda88245aba79c93755b4e5, type: 3}
  m_Color: {r: 1, g: 1, b: 1, a: 0.51}
  m_FlipX: 0
  m_FlipY: 0
  m_DrawMode: 0
  m_Size: {x: 1, y: 1}
  m_AdaptiveModeThreshold: 0.5
  m_SpriteTileMode: 0
  m_WasSpriteAssigned: 1
  m_MaskInteraction: 0
  m_SpriteSortPoint: 0
--- !u!1 &420942373
GameObject:
  m_ObjectHideFlags: 0
  m_CorrespondingSourceObject: {fileID: 0}
  m_PrefabInstance: {fileID: 0}
  m_PrefabAsset: {fileID: 0}
  serializedVersion: 6
  m_Component:
  - component: {fileID: 420942374}
  m_Layer: 0
  m_Name: Emitter(Clone)
  m_TagString: Untagged
  m_Icon: {fileID: 0}
  m_NavMeshLayer: 0
  m_StaticEditorFlags: 0
  m_IsActive: 1
--- !u!4 &420942374
Transform:
  m_ObjectHideFlags: 0
  m_CorrespondingSourceObject: {fileID: 0}
  m_PrefabInstance: {fileID: 0}
  m_PrefabAsset: {fileID: 0}
  m_GameObject: {fileID: 420942373}
  serializedVersion: 2
  m_LocalRotation: {x: 0, y: 0, z: -0.08715574, w: 0.9961947}
  m_LocalPosition: {x: 0, y: 1, z: 0}
  m_LocalScale: {x: 1, y: 1, z: 1}
  m_ConstrainProportionsScale: 0
  m_Children:
  - {fileID: 728342979}
  m_Father: {fileID: 1939547816}
  m_LocalEulerAnglesHint: {x: 0, y: 0, z: 0}
--- !u!1 &594174458
GameObject:
  m_ObjectHideFlags: 0
  m_CorrespondingSourceObject: {fileID: 0}
  m_PrefabInstance: {fileID: 0}
  m_PrefabAsset: {fileID: 0}
  serializedVersion: 6
  m_Component:
  - component: {fileID: 594174459}
  m_Layer: 0
  m_Name: Emitter(Clone)
  m_TagString: Untagged
  m_Icon: {fileID: 0}
  m_NavMeshLayer: 0
  m_StaticEditorFlags: 0
  m_IsActive: 1
--- !u!4 &594174459
Transform:
  m_ObjectHideFlags: 0
  m_CorrespondingSourceObject: {fileID: 0}
  m_PrefabInstance: {fileID: 0}
  m_PrefabAsset: {fileID: 0}
  m_GameObject: {fileID: 594174458}
  serializedVersion: 2
  m_LocalRotation: {x: 0, y: 0, z: -0.25881907, w: 0.9659259}
  m_LocalPosition: {x: 0, y: 3, z: 0}
  m_LocalScale: {x: 1, y: 1, z: 1}
  m_ConstrainProportionsScale: 0
  m_Children:
  - {fileID: 1605978535}
  m_Father: {fileID: 1939547816}
  m_LocalEulerAnglesHint: {x: 0, y: 0, z: 0}
--- !u!1 &688563383
GameObject:
  m_ObjectHideFlags: 0
  m_CorrespondingSourceObject: {fileID: 0}
  m_PrefabInstance: {fileID: 0}
  m_PrefabAsset: {fileID: 0}
  serializedVersion: 6
  m_Component:
  - component: {fileID: 688563384}
  m_Layer: 0
  m_Name: Emitter(Clone)
  m_TagString: Untagged
  m_Icon: {fileID: 0}
  m_NavMeshLayer: 0
  m_StaticEditorFlags: 0
  m_IsActive: 1
--- !u!4 &688563384
Transform:
  m_ObjectHideFlags: 0
  m_CorrespondingSourceObject: {fileID: 0}
  m_PrefabInstance: {fileID: 0}
  m_PrefabAsset: {fileID: 0}
  m_GameObject: {fileID: 688563383}
  serializedVersion: 2
  m_LocalRotation: {x: 0, y: 0, z: -0.1736482, w: 0.9848078}
  m_LocalPosition: {x: 0, y: 2, z: 0}
  m_LocalScale: {x: 1, y: 1, z: 1}
  m_ConstrainProportionsScale: 0
  m_Children:
  - {fileID: 145557950}
  m_Father: {fileID: 1939547816}
  m_LocalEulerAnglesHint: {x: 0, y: 0, z: 0}
--- !u!1 &728342978
GameObject:
  m_ObjectHideFlags: 0
  m_CorrespondingSourceObject: {fileID: 0}
  m_PrefabInstance: {fileID: 0}
  m_PrefabAsset: {fileID: 0}
  serializedVersion: 6
  m_Component:
  - component: {fileID: 728342979}
  - component: {fileID: 728342981}
  - component: {fileID: 728342980}
  m_Layer: 0
  m_Name: Point
  m_TagString: Untagged
  m_Icon: {fileID: 0}
  m_NavMeshLayer: 0
  m_StaticEditorFlags: 0
  m_IsActive: 1
--- !u!4 &728342979
Transform:
  m_ObjectHideFlags: 0
  m_CorrespondingSourceObject: {fileID: 0}
  m_PrefabInstance: {fileID: 0}
  m_PrefabAsset: {fileID: 0}
  m_GameObject: {fileID: 728342978}
  serializedVersion: 2
  m_LocalRotation: {x: 0, y: 0, z: -0.043619387, w: 0.99904823}
  m_LocalPosition: {x: 40, y: 0, z: 0}
  m_LocalScale: {x: 0.2, y: 0.2, z: 1}
  m_ConstrainProportionsScale: 0
  m_Children: []
  m_Father: {fileID: 420942374}
  m_LocalEulerAnglesHint: {x: 0, y: 0, z: 0}
--- !u!114 &728342980
MonoBehaviour:
  m_ObjectHideFlags: 0
  m_CorrespondingSourceObject: {fileID: 0}
  m_PrefabInstance: {fileID: 0}
  m_PrefabAsset: {fileID: 0}
  m_GameObject: {fileID: 728342978}
  m_Enabled: 1
  m_EditorHideFlags: 0
  m_Script: {fileID: 11500000, guid: 6875f8caadce09f4499a8b1facf17c27, type: 3}
  m_Name: 
  m_EditorClassIdentifier: 
  makeNodeOnly: 0
  LocalPitch: 0
  customIndicator: {fileID: 0}
  Shot: {fileID: 1026459205134466, guid: 1456812e36c805e4899e5ca58cee08b1, type: 3}
  ShotSpeed: 6
  LocalOffset: 0
  controller: {fileID: 0}
  OnStoppedFiring:
    m_PersistentCalls:
      m_Calls: []
  SpriteColor: {r: 1, g: 1, b: 1, a: 1}
  SpriteOverride: {fileID: 0}
  ParentToEmitter: 0
  IgnoreGlobalRateScale: 0
  ShotRate: 30
  PauseRate: 100
  PauseLength: 2
  ShotOverlap: -1
  _poolingEnabled: 1
  AutoPool: 0
  AutoPoolOverride: 0
  BankingEnabled: 1
--- !u!212 &728342981
SpriteRenderer:
  m_ObjectHideFlags: 0
  m_CorrespondingSourceObject: {fileID: 0}
  m_PrefabInstance: {fileID: 0}
  m_PrefabAsset: {fileID: 0}
  m_GameObject: {fileID: 728342978}
  m_Enabled: 1
  m_CastShadows: 0
  m_ReceiveShadows: 0
  m_DynamicOccludee: 1
  m_StaticShadowCaster: 0
  m_MotionVectors: 1
  m_LightProbeUsage: 0
  m_ReflectionProbeUsage: 0
  m_RayTracingMode: 0
  m_RayTraceProcedural: 0
  m_RenderingLayerMask: 1
  m_RendererPriority: 0
  m_Materials:
  - {fileID: 10754, guid: 0000000000000000f000000000000000, type: 0}
  m_StaticBatchInfo:
    firstSubMesh: 0
    subMeshCount: 0
  m_StaticBatchRoot: {fileID: 0}
  m_ProbeAnchor: {fileID: 0}
  m_LightProbeVolumeOverride: {fileID: 0}
  m_ScaleInLightmap: 1
  m_ReceiveGI: 1
  m_PreserveUVs: 0
  m_IgnoreNormalsForChartDetection: 0
  m_ImportantGI: 0
  m_StitchLightmapSeams: 1
  m_SelectedEditorRenderState: 0
  m_MinimumChartSize: 4
  m_AutoUVMaxDistance: 0.5
  m_AutoUVMaxAngle: 89
  m_LightmapParameters: {fileID: 0}
  m_SortingLayerID: 950124507
  m_SortingLayer: 0
  m_SortingOrder: 10049
  m_Sprite: {fileID: 21300000, guid: 0028a729cfda88245aba79c93755b4e5, type: 3}
  m_Color: {r: 1, g: 1, b: 1, a: 0.51}
  m_FlipX: 0
  m_FlipY: 0
  m_DrawMode: 0
  m_Size: {x: 1, y: 1}
  m_AdaptiveModeThreshold: 0.5
  m_SpriteTileMode: 0
  m_WasSpriteAssigned: 1
  m_MaskInteraction: 0
  m_SpriteSortPoint: 0
--- !u!1 &737920086
GameObject:
  m_ObjectHideFlags: 0
  m_CorrespondingSourceObject: {fileID: 0}
  m_PrefabInstance: {fileID: 0}
  m_PrefabAsset: {fileID: 0}
  serializedVersion: 6
  m_Component:
  - component: {fileID: 737920087}
  - component: {fileID: 737920089}
  - component: {fileID: 737920088}
  m_Layer: 0
  m_Name: Point
  m_TagString: Untagged
  m_Icon: {fileID: 0}
  m_NavMeshLayer: 0
  m_StaticEditorFlags: 0
  m_IsActive: 1
--- !u!4 &737920087
Transform:
  m_ObjectHideFlags: 0
  m_CorrespondingSourceObject: {fileID: 0}
  m_PrefabInstance: {fileID: 0}
  m_PrefabAsset: {fileID: 0}
  m_GameObject: {fileID: 737920086}
  serializedVersion: 2
  m_LocalRotation: {x: 0, y: 0, z: 0.043619387, w: 0.99904823}
  m_LocalPosition: {x: 40, y: 0, z: 0}
  m_LocalScale: {x: 0.2, y: 0.2, z: 1}
  m_ConstrainProportionsScale: 0
  m_Children: []
  m_Father: {fileID: 763272617}
  m_LocalEulerAnglesHint: {x: 0, y: 0, z: 0}
--- !u!114 &737920088
MonoBehaviour:
  m_ObjectHideFlags: 0
  m_CorrespondingSourceObject: {fileID: 0}
  m_PrefabInstance: {fileID: 0}
  m_PrefabAsset: {fileID: 0}
  m_GameObject: {fileID: 737920086}
  m_Enabled: 1
  m_EditorHideFlags: 0
  m_Script: {fileID: 11500000, guid: 6875f8caadce09f4499a8b1facf17c27, type: 3}
  m_Name: 
  m_EditorClassIdentifier: 
  makeNodeOnly: 0
  LocalPitch: 0
  customIndicator: {fileID: 0}
  Shot: {fileID: 1004262627135494, guid: 8e1ec1a59ca416c4b9b57022b1b2f213, type: 3}
  ShotSpeed: 6
  LocalOffset: 0
  controller: {fileID: 0}
  OnStoppedFiring:
    m_PersistentCalls:
      m_Calls: []
  SpriteColor: {r: 1, g: 1, b: 1, a: 1}
  SpriteOverride: {fileID: 0}
  ParentToEmitter: 0
  IgnoreGlobalRateScale: 0
  ShotRate: 30
  PauseRate: 100
  PauseLength: 2
  ShotOverlap: -1
  _poolingEnabled: 1
  AutoPool: 0
  AutoPoolOverride: 0
  BankingEnabled: 1
--- !u!212 &737920089
SpriteRenderer:
  m_ObjectHideFlags: 0
  m_CorrespondingSourceObject: {fileID: 0}
  m_PrefabInstance: {fileID: 0}
  m_PrefabAsset: {fileID: 0}
  m_GameObject: {fileID: 737920086}
  m_Enabled: 1
  m_CastShadows: 0
  m_ReceiveShadows: 0
  m_DynamicOccludee: 1
  m_StaticShadowCaster: 0
  m_MotionVectors: 1
  m_LightProbeUsage: 0
  m_ReflectionProbeUsage: 0
  m_RayTracingMode: 0
  m_RayTraceProcedural: 0
  m_RenderingLayerMask: 1
  m_RendererPriority: 0
  m_Materials:
  - {fileID: 10754, guid: 0000000000000000f000000000000000, type: 0}
  m_StaticBatchInfo:
    firstSubMesh: 0
    subMeshCount: 0
  m_StaticBatchRoot: {fileID: 0}
  m_ProbeAnchor: {fileID: 0}
  m_LightProbeVolumeOverride: {fileID: 0}
  m_ScaleInLightmap: 1
  m_ReceiveGI: 1
  m_PreserveUVs: 0
  m_IgnoreNormalsForChartDetection: 0
  m_ImportantGI: 0
  m_StitchLightmapSeams: 1
  m_SelectedEditorRenderState: 0
  m_MinimumChartSize: 4
  m_AutoUVMaxDistance: 0.5
  m_AutoUVMaxAngle: 89
  m_LightmapParameters: {fileID: 0}
  m_SortingLayerID: 950124507
  m_SortingLayer: 0
  m_SortingOrder: 10099
  m_Sprite: {fileID: 21300000, guid: 0028a729cfda88245aba79c93755b4e5, type: 3}
  m_Color: {r: 1, g: 1, b: 1, a: 0.51}
  m_FlipX: 0
  m_FlipY: 0
  m_DrawMode: 0
  m_Size: {x: 1, y: 1}
  m_AdaptiveModeThreshold: 0.5
  m_SpriteTileMode: 0
  m_WasSpriteAssigned: 1
  m_MaskInteraction: 0
  m_SpriteSortPoint: 0
--- !u!1 &763272616
GameObject:
  m_ObjectHideFlags: 0
  m_CorrespondingSourceObject: {fileID: 0}
  m_PrefabInstance: {fileID: 0}
  m_PrefabAsset: {fileID: 0}
  serializedVersion: 6
  m_Component:
  - component: {fileID: 763272617}
  m_Layer: 0
  m_Name: Emitter(Clone)
  m_TagString: Untagged
  m_Icon: {fileID: 0}
  m_NavMeshLayer: 0
  m_StaticEditorFlags: 0
  m_IsActive: 1
--- !u!4 &763272617
Transform:
  m_ObjectHideFlags: 0
  m_CorrespondingSourceObject: {fileID: 0}
  m_PrefabInstance: {fileID: 0}
  m_PrefabAsset: {fileID: 0}
  m_GameObject: {fileID: 763272616}
  serializedVersion: 2
  m_LocalRotation: {x: 0, y: 0, z: 0.1305262, w: 0.9914449}
  m_LocalPosition: {x: 0, y: -1.5, z: 0}
  m_LocalScale: {x: 1, y: 1, z: 1}
  m_ConstrainProportionsScale: 0
  m_Children:
  - {fileID: 737920087}
  m_Father: {fileID: 1939547816}
  m_LocalEulerAnglesHint: {x: 0, y: 0, z: 0}
--- !u!1 &794946281
GameObject:
  m_ObjectHideFlags: 0
  m_CorrespondingSourceObject: {fileID: 0}
  m_PrefabInstance: {fileID: 0}
  m_PrefabAsset: {fileID: 0}
  serializedVersion: 6
  m_Component:
  - component: {fileID: 794946282}
  - component: {fileID: 794946284}
  - component: {fileID: 794946283}
  m_Layer: 0
  m_Name: Point
  m_TagString: Untagged
  m_Icon: {fileID: 0}
  m_NavMeshLayer: 0
  m_StaticEditorFlags: 0
  m_IsActive: 1
--- !u!4 &794946282
Transform:
  m_ObjectHideFlags: 0
  m_CorrespondingSourceObject: {fileID: 0}
  m_PrefabInstance: {fileID: 0}
  m_PrefabAsset: {fileID: 0}
  m_GameObject: {fileID: 794946281}
  serializedVersion: 2
  m_LocalRotation: {x: 0, y: 0, z: 0.043619387, w: 0.99904823}
  m_LocalPosition: {x: 40, y: 0, z: 0}
  m_LocalScale: {x: 0.2, y: 0.2, z: 1}
  m_ConstrainProportionsScale: 0
  m_Children: []
  m_Father: {fileID: 1982574961}
  m_LocalEulerAnglesHint: {x: 0, y: 0, z: 0}
--- !u!114 &794946283
MonoBehaviour:
  m_ObjectHideFlags: 0
  m_CorrespondingSourceObject: {fileID: 0}
  m_PrefabInstance: {fileID: 0}
  m_PrefabAsset: {fileID: 0}
  m_GameObject: {fileID: 794946281}
  m_Enabled: 1
  m_EditorHideFlags: 0
  m_Script: {fileID: 11500000, guid: 6875f8caadce09f4499a8b1facf17c27, type: 3}
  m_Name: 
  m_EditorClassIdentifier: 
  makeNodeOnly: 0
  LocalPitch: 0
  customIndicator: {fileID: 0}
  Shot: {fileID: 1026459205134466, guid: 1456812e36c805e4899e5ca58cee08b1, type: 3}
  ShotSpeed: 6
  LocalOffset: 0
  controller: {fileID: 0}
  OnStoppedFiring:
    m_PersistentCalls:
      m_Calls: []
  SpriteColor: {r: 1, g: 1, b: 1, a: 1}
  SpriteOverride: {fileID: 0}
  ParentToEmitter: 0
  IgnoreGlobalRateScale: 0
  ShotRate: 30
  PauseRate: 100
  PauseLength: 2
  ShotOverlap: -1
  _poolingEnabled: 1
  AutoPool: 0
  AutoPoolOverride: 0
  BankingEnabled: 1
--- !u!212 &794946284
SpriteRenderer:
  m_ObjectHideFlags: 0
  m_CorrespondingSourceObject: {fileID: 0}
  m_PrefabInstance: {fileID: 0}
  m_PrefabAsset: {fileID: 0}
  m_GameObject: {fileID: 794946281}
  m_Enabled: 1
  m_CastShadows: 0
  m_ReceiveShadows: 0
  m_DynamicOccludee: 1
  m_StaticShadowCaster: 0
  m_MotionVectors: 1
  m_LightProbeUsage: 0
  m_ReflectionProbeUsage: 0
  m_RayTracingMode: 0
  m_RayTraceProcedural: 0
  m_RenderingLayerMask: 1
  m_RendererPriority: 0
  m_Materials:
  - {fileID: 10754, guid: 0000000000000000f000000000000000, type: 0}
  m_StaticBatchInfo:
    firstSubMesh: 0
    subMeshCount: 0
  m_StaticBatchRoot: {fileID: 0}
  m_ProbeAnchor: {fileID: 0}
  m_LightProbeVolumeOverride: {fileID: 0}
  m_ScaleInLightmap: 1
  m_ReceiveGI: 1
  m_PreserveUVs: 0
  m_IgnoreNormalsForChartDetection: 0
  m_ImportantGI: 0
  m_StitchLightmapSeams: 1
  m_SelectedEditorRenderState: 0
  m_MinimumChartSize: 4
  m_AutoUVMaxDistance: 0.5
  m_AutoUVMaxAngle: 89
  m_LightmapParameters: {fileID: 0}
  m_SortingLayerID: 950124507
  m_SortingLayer: 0
  m_SortingOrder: 10079
  m_Sprite: {fileID: 21300000, guid: 0028a729cfda88245aba79c93755b4e5, type: 3}
  m_Color: {r: 1, g: 1, b: 1, a: 0.51}
  m_FlipX: 0
  m_FlipY: 0
  m_DrawMode: 0
  m_Size: {x: 1, y: 1}
  m_AdaptiveModeThreshold: 0.5
  m_SpriteTileMode: 0
  m_WasSpriteAssigned: 1
  m_MaskInteraction: 0
  m_SpriteSortPoint: 0
--- !u!1 &858848062
GameObject:
  m_ObjectHideFlags: 0
  m_CorrespondingSourceObject: {fileID: 0}
  m_PrefabInstance: {fileID: 0}
  m_PrefabAsset: {fileID: 0}
  serializedVersion: 6
  m_Component:
  - component: {fileID: 858848063}
  m_Layer: 0
  m_Name: Emitter(Clone)
  m_TagString: Untagged
  m_Icon: {fileID: 0}
  m_NavMeshLayer: 0
  m_StaticEditorFlags: 0
  m_IsActive: 1
--- !u!4 &858848063
Transform:
  m_ObjectHideFlags: 0
  m_CorrespondingSourceObject: {fileID: 0}
  m_PrefabInstance: {fileID: 0}
  m_PrefabAsset: {fileID: 0}
  m_GameObject: {fileID: 858848062}
  serializedVersion: 2
  m_LocalRotation: {x: 0, y: 0, z: 0.1736482, w: 0.9848078}
  m_LocalPosition: {x: 0, y: -2, z: 0}
  m_LocalScale: {x: 1, y: 1, z: 1}
  m_ConstrainProportionsScale: 0
  m_Children:
  - {fileID: 1670293162}
  m_Father: {fileID: 1939547816}
  m_LocalEulerAnglesHint: {x: 0, y: 0, z: 0}
--- !u!1 &932052989
GameObject:
  m_ObjectHideFlags: 0
  m_CorrespondingSourceObject: {fileID: 0}
  m_PrefabInstance: {fileID: 0}
  m_PrefabAsset: {fileID: 0}
  serializedVersion: 6
  m_Component:
  - component: {fileID: 932052990}
  - component: {fileID: 932052992}
  - component: {fileID: 932052991}
  m_Layer: 0
  m_Name: Point
  m_TagString: Untagged
  m_Icon: {fileID: 0}
  m_NavMeshLayer: 0
  m_StaticEditorFlags: 0
  m_IsActive: 1
--- !u!4 &932052990
Transform:
  m_ObjectHideFlags: 0
  m_CorrespondingSourceObject: {fileID: 0}
  m_PrefabInstance: {fileID: 0}
  m_PrefabAsset: {fileID: 0}
  m_GameObject: {fileID: 932052989}
  serializedVersion: 2
  m_LocalRotation: {x: 0, y: 0, z: -0.043619387, w: 0.99904823}
  m_LocalPosition: {x: 40, y: 0, z: 0}
  m_LocalScale: {x: 0.2, y: 0.2, z: 1}
  m_ConstrainProportionsScale: 0
  m_Children: []
  m_Father: {fileID: 1069109006}
  m_LocalEulerAnglesHint: {x: 0, y: 0, z: 0}
--- !u!114 &932052991
MonoBehaviour:
  m_ObjectHideFlags: 0
  m_CorrespondingSourceObject: {fileID: 0}
  m_PrefabInstance: {fileID: 0}
  m_PrefabAsset: {fileID: 0}
  m_GameObject: {fileID: 932052989}
  m_Enabled: 1
  m_EditorHideFlags: 0
  m_Script: {fileID: 11500000, guid: 6875f8caadce09f4499a8b1facf17c27, type: 3}
  m_Name: 
  m_EditorClassIdentifier: 
  makeNodeOnly: 0
  LocalPitch: 0
  customIndicator: {fileID: 0}
  Shot: {fileID: 1026459205134466, guid: 1456812e36c805e4899e5ca58cee08b1, type: 3}
  ShotSpeed: 6
  LocalOffset: 0
  controller: {fileID: 0}
  OnStoppedFiring:
    m_PersistentCalls:
      m_Calls: []
  SpriteColor: {r: 1, g: 1, b: 1, a: 1}
  SpriteOverride: {fileID: 0}
  ParentToEmitter: 0
  IgnoreGlobalRateScale: 0
  ShotRate: 30
  PauseRate: 100
  PauseLength: 2
  ShotOverlap: -1
  _poolingEnabled: 1
  AutoPool: 0
  AutoPoolOverride: 0
  BankingEnabled: 1
--- !u!212 &932052992
SpriteRenderer:
  m_ObjectHideFlags: 0
  m_CorrespondingSourceObject: {fileID: 0}
  m_PrefabInstance: {fileID: 0}
  m_PrefabAsset: {fileID: 0}
  m_GameObject: {fileID: 932052989}
  m_Enabled: 1
  m_CastShadows: 0
  m_ReceiveShadows: 0
  m_DynamicOccludee: 1
  m_StaticShadowCaster: 0
  m_MotionVectors: 1
  m_LightProbeUsage: 0
  m_ReflectionProbeUsage: 0
  m_RayTracingMode: 0
  m_RayTraceProcedural: 0
  m_RenderingLayerMask: 1
  m_RendererPriority: 0
  m_Materials:
  - {fileID: 10754, guid: 0000000000000000f000000000000000, type: 0}
  m_StaticBatchInfo:
    firstSubMesh: 0
    subMeshCount: 0
  m_StaticBatchRoot: {fileID: 0}
  m_ProbeAnchor: {fileID: 0}
  m_LightProbeVolumeOverride: {fileID: 0}
  m_ScaleInLightmap: 1
  m_ReceiveGI: 1
  m_PreserveUVs: 0
  m_IgnoreNormalsForChartDetection: 0
  m_ImportantGI: 0
  m_StitchLightmapSeams: 1
  m_SelectedEditorRenderState: 0
  m_MinimumChartSize: 4
  m_AutoUVMaxDistance: 0.5
  m_AutoUVMaxAngle: 89
  m_LightmapParameters: {fileID: 0}
  m_SortingLayerID: 950124507
  m_SortingLayer: 0
  m_SortingOrder: 10019
  m_Sprite: {fileID: 21300000, guid: 0028a729cfda88245aba79c93755b4e5, type: 3}
  m_Color: {r: 1, g: 1, b: 1, a: 0.51}
  m_FlipX: 0
  m_FlipY: 0
  m_DrawMode: 0
  m_Size: {x: 1, y: 1}
  m_AdaptiveModeThreshold: 0.5
  m_SpriteTileMode: 0
  m_WasSpriteAssigned: 1
  m_MaskInteraction: 0
  m_SpriteSortPoint: 0
--- !u!1 &933200357
GameObject:
  m_ObjectHideFlags: 0
  m_CorrespondingSourceObject: {fileID: 0}
  m_PrefabInstance: {fileID: 0}
  m_PrefabAsset: {fileID: 0}
  serializedVersion: 6
  m_Component:
  - component: {fileID: 933200360}
  m_Layer: 9
  m_Name: WavePattern
  m_TagString: Player
  m_Icon: {fileID: 0}
  m_NavMeshLayer: 0
  m_StaticEditorFlags: 0
  m_IsActive: 1
--- !u!4 &933200360
Transform:
  m_ObjectHideFlags: 0
  m_CorrespondingSourceObject: {fileID: 0}
  m_PrefabInstance: {fileID: 0}
  m_PrefabAsset: {fileID: 0}
  m_GameObject: {fileID: 933200357}
  serializedVersion: 2
  m_LocalRotation: {x: 0, y: 0, z: -0.7071068, w: 0.7071068}
  m_LocalPosition: {x: 0, y: 9.25, z: 0}
  m_LocalScale: {x: 1, y: 1, z: 1}
  m_ConstrainProportionsScale: 0
  m_Children:
  - {fileID: 983933168}
  m_Father: {fileID: 0}
  m_LocalEulerAnglesHint: {x: 0, y: 0, z: 0}
--- !u!1 &942099018
GameObject:
  m_ObjectHideFlags: 0
  m_CorrespondingSourceObject: {fileID: 0}
  m_PrefabInstance: {fileID: 0}
  m_PrefabAsset: {fileID: 0}
  serializedVersion: 6
  m_Component:
  - component: {fileID: 942099019}
  - component: {fileID: 942099021}
  - component: {fileID: 942099020}
  m_Layer: 0
  m_Name: Point
  m_TagString: Untagged
  m_Icon: {fileID: 0}
  m_NavMeshLayer: 0
  m_StaticEditorFlags: 0
  m_IsActive: 1
--- !u!4 &942099019
Transform:
  m_ObjectHideFlags: 0
  m_CorrespondingSourceObject: {fileID: 0}
  m_PrefabInstance: {fileID: 0}
  m_PrefabAsset: {fileID: 0}
  m_GameObject: {fileID: 942099018}
  serializedVersion: 2
  m_LocalRotation: {x: 0, y: 0, z: 0.043619387, w: 0.99904823}
  m_LocalPosition: {x: 40, y: 0, z: 0}
  m_LocalScale: {x: 0.2, y: 0.2, z: 1}
  m_ConstrainProportionsScale: 0
  m_Children: []
  m_Father: {fileID: 1575847847}
  m_LocalEulerAnglesHint: {x: 0, y: 0, z: 0}
--- !u!114 &942099020
MonoBehaviour:
  m_ObjectHideFlags: 0
  m_CorrespondingSourceObject: {fileID: 0}
  m_PrefabInstance: {fileID: 0}
  m_PrefabAsset: {fileID: 0}
  m_GameObject: {fileID: 942099018}
  m_Enabled: 1
  m_EditorHideFlags: 0
  m_Script: {fileID: 11500000, guid: 6875f8caadce09f4499a8b1facf17c27, type: 3}
  m_Name: 
  m_EditorClassIdentifier: 
  makeNodeOnly: 0
  LocalPitch: 0
  customIndicator: {fileID: 0}
  Shot: {fileID: 1004262627135494, guid: 8e1ec1a59ca416c4b9b57022b1b2f213, type: 3}
  ShotSpeed: 6
  LocalOffset: 0
  controller: {fileID: 0}
  OnStoppedFiring:
    m_PersistentCalls:
      m_Calls: []
  SpriteColor: {r: 1, g: 1, b: 1, a: 1}
  SpriteOverride: {fileID: 0}
  ParentToEmitter: 0
  IgnoreGlobalRateScale: 0
  ShotRate: 30
  PauseRate: 100
  PauseLength: 2
  ShotOverlap: -1
  _poolingEnabled: 1
  AutoPool: 0
  AutoPoolOverride: 0
  BankingEnabled: 1
--- !u!212 &942099021
SpriteRenderer:
  m_ObjectHideFlags: 0
  m_CorrespondingSourceObject: {fileID: 0}
  m_PrefabInstance: {fileID: 0}
  m_PrefabAsset: {fileID: 0}
  m_GameObject: {fileID: 942099018}
  m_Enabled: 1
  m_CastShadows: 0
  m_ReceiveShadows: 0
  m_DynamicOccludee: 1
  m_StaticShadowCaster: 0
  m_MotionVectors: 1
  m_LightProbeUsage: 0
  m_ReflectionProbeUsage: 0
  m_RayTracingMode: 0
  m_RayTraceProcedural: 0
  m_RenderingLayerMask: 1
  m_RendererPriority: 0
  m_Materials:
  - {fileID: 10754, guid: 0000000000000000f000000000000000, type: 0}
  m_StaticBatchInfo:
    firstSubMesh: 0
    subMeshCount: 0
  m_StaticBatchRoot: {fileID: 0}
  m_ProbeAnchor: {fileID: 0}
  m_LightProbeVolumeOverride: {fileID: 0}
  m_ScaleInLightmap: 1
  m_ReceiveGI: 1
  m_PreserveUVs: 0
  m_IgnoreNormalsForChartDetection: 0
  m_ImportantGI: 0
  m_StitchLightmapSeams: 1
  m_SelectedEditorRenderState: 0
  m_MinimumChartSize: 4
  m_AutoUVMaxDistance: 0.5
  m_AutoUVMaxAngle: 89
  m_LightmapParameters: {fileID: 0}
  m_SortingLayerID: 950124507
  m_SortingLayer: 0
  m_SortingOrder: 10089
  m_Sprite: {fileID: 21300000, guid: 0028a729cfda88245aba79c93755b4e5, type: 3}
  m_Color: {r: 1, g: 1, b: 1, a: 0.51}
  m_FlipX: 0
  m_FlipY: 0
  m_DrawMode: 0
  m_Size: {x: 1, y: 1}
  m_AdaptiveModeThreshold: 0.5
  m_SpriteTileMode: 0
  m_WasSpriteAssigned: 1
  m_MaskInteraction: 0
  m_SpriteSortPoint: 0
--- !u!4 &983933168 stripped
Transform:
  m_CorrespondingSourceObject: {fileID: 4000011465702616, guid: 5d5a70f9bf23cff40b76aa2464691e73, type: 3}
  m_PrefabInstance: {fileID: 126476228}
  m_PrefabAsset: {fileID: 0}
--- !u!1 &1059338172
GameObject:
  m_ObjectHideFlags: 0
  m_CorrespondingSourceObject: {fileID: 0}
  m_PrefabInstance: {fileID: 0}
  m_PrefabAsset: {fileID: 0}
  serializedVersion: 6
  m_Component:
  - component: {fileID: 1059338173}
  - component: {fileID: 1059338175}
  - component: {fileID: 1059338174}
  m_Layer: 0
  m_Name: Point
  m_TagString: Untagged
  m_Icon: {fileID: 0}
  m_NavMeshLayer: 0
  m_StaticEditorFlags: 0
  m_IsActive: 1
--- !u!4 &1059338173
Transform:
  m_ObjectHideFlags: 0
  m_CorrespondingSourceObject: {fileID: 0}
  m_PrefabInstance: {fileID: 0}
  m_PrefabAsset: {fileID: 0}
  m_GameObject: {fileID: 1059338172}
  serializedVersion: 2
  m_LocalRotation: {x: 0, y: 0, z: -0.043619387, w: 0.99904823}
  m_LocalPosition: {x: 40, y: 0, z: 0}
  m_LocalScale: {x: 0.2, y: 0.2, z: 1}
  m_ConstrainProportionsScale: 0
  m_Children: []
  m_Father: {fileID: 1856815644}
  m_LocalEulerAnglesHint: {x: 0, y: 0, z: 0}
--- !u!114 &1059338174
MonoBehaviour:
  m_ObjectHideFlags: 0
  m_CorrespondingSourceObject: {fileID: 0}
  m_PrefabInstance: {fileID: 0}
  m_PrefabAsset: {fileID: 0}
  m_GameObject: {fileID: 1059338172}
  m_Enabled: 1
  m_EditorHideFlags: 0
  m_Script: {fileID: 11500000, guid: 6875f8caadce09f4499a8b1facf17c27, type: 3}
  m_Name: 
  m_EditorClassIdentifier: 
  makeNodeOnly: 0
  LocalPitch: 0
  customIndicator: {fileID: 0}
  Shot: {fileID: 1004262627135494, guid: 8e1ec1a59ca416c4b9b57022b1b2f213, type: 3}
  ShotSpeed: 6
  LocalOffset: 0
  controller: {fileID: 0}
  OnStoppedFiring:
    m_PersistentCalls:
      m_Calls: []
  SpriteColor: {r: 1, g: 1, b: 1, a: 1}
  SpriteOverride: {fileID: 0}
  ParentToEmitter: 0
  IgnoreGlobalRateScale: 0
  ShotRate: 30
  PauseRate: 100
  PauseLength: 2
  ShotOverlap: -1
  _poolingEnabled: 1
  AutoPool: 0
  AutoPoolOverride: 0
  BankingEnabled: 1
--- !u!212 &1059338175
SpriteRenderer:
  m_ObjectHideFlags: 0
  m_CorrespondingSourceObject: {fileID: 0}
  m_PrefabInstance: {fileID: 0}
  m_PrefabAsset: {fileID: 0}
  m_GameObject: {fileID: 1059338172}
  m_Enabled: 1
  m_CastShadows: 0
  m_ReceiveShadows: 0
  m_DynamicOccludee: 1
  m_StaticShadowCaster: 0
  m_MotionVectors: 1
  m_LightProbeUsage: 0
  m_ReflectionProbeUsage: 0
  m_RayTracingMode: 0
  m_RayTraceProcedural: 0
  m_RenderingLayerMask: 1
  m_RendererPriority: 0
  m_Materials:
  - {fileID: 10754, guid: 0000000000000000f000000000000000, type: 0}
  m_StaticBatchInfo:
    firstSubMesh: 0
    subMeshCount: 0
  m_StaticBatchRoot: {fileID: 0}
  m_ProbeAnchor: {fileID: 0}
  m_LightProbeVolumeOverride: {fileID: 0}
  m_ScaleInLightmap: 1
  m_ReceiveGI: 1
  m_PreserveUVs: 0
  m_IgnoreNormalsForChartDetection: 0
  m_ImportantGI: 0
  m_StitchLightmapSeams: 1
  m_SelectedEditorRenderState: 0
  m_MinimumChartSize: 4
  m_AutoUVMaxDistance: 0.5
  m_AutoUVMaxAngle: 89
  m_LightmapParameters: {fileID: 0}
  m_SortingLayerID: 950124507
  m_SortingLayer: 0
  m_SortingOrder: 10039
  m_Sprite: {fileID: 21300000, guid: 0028a729cfda88245aba79c93755b4e5, type: 3}
  m_Color: {r: 1, g: 1, b: 1, a: 0.51}
  m_FlipX: 0
  m_FlipY: 0
  m_DrawMode: 0
  m_Size: {x: 1, y: 1}
  m_AdaptiveModeThreshold: 0.5
  m_SpriteTileMode: 0
  m_WasSpriteAssigned: 1
  m_MaskInteraction: 0
  m_SpriteSortPoint: 0
--- !u!1 &1069109005
GameObject:
  m_ObjectHideFlags: 0
  m_CorrespondingSourceObject: {fileID: 0}
  m_PrefabInstance: {fileID: 0}
  m_PrefabAsset: {fileID: 0}
  serializedVersion: 6
  m_Component:
  - component: {fileID: 1069109006}
  m_Layer: 0
  m_Name: Emitter(Clone)
  m_TagString: Untagged
  m_Icon: {fileID: 0}
  m_NavMeshLayer: 0
  m_StaticEditorFlags: 0
  m_IsActive: 1
--- !u!4 &1069109006
Transform:
  m_ObjectHideFlags: 0
  m_CorrespondingSourceObject: {fileID: 0}
  m_PrefabInstance: {fileID: 0}
  m_PrefabAsset: {fileID: 0}
  m_GameObject: {fileID: 1069109005}
  serializedVersion: 2
  m_LocalRotation: {x: 0, y: 0, z: -0.21643962, w: 0.976296}
  m_LocalPosition: {x: 0, y: 2.5, z: 0}
  m_LocalScale: {x: 1, y: 1, z: 1}
  m_ConstrainProportionsScale: 0
  m_Children:
  - {fileID: 932052990}
  m_Father: {fileID: 1939547816}
  m_LocalEulerAnglesHint: {x: 0, y: 0, z: 0}
--- !u!1 &1301111576
GameObject:
  m_ObjectHideFlags: 0
  m_CorrespondingSourceObject: {fileID: 0}
  m_PrefabInstance: {fileID: 0}
  m_PrefabAsset: {fileID: 0}
  serializedVersion: 6
  m_Component:
  - component: {fileID: 1301111577}
  - component: {fileID: 1301111579}
  - component: {fileID: 1301111578}
  m_Layer: 0
  m_Name: Point
  m_TagString: Untagged
  m_Icon: {fileID: 0}
  m_NavMeshLayer: 0
  m_StaticEditorFlags: 0
  m_IsActive: 1
--- !u!4 &1301111577
Transform:
  m_ObjectHideFlags: 0
  m_CorrespondingSourceObject: {fileID: 0}
  m_PrefabInstance: {fileID: 0}
  m_PrefabAsset: {fileID: 0}
  m_GameObject: {fileID: 1301111576}
  serializedVersion: 2
  m_LocalRotation: {x: 0, y: 0, z: -0.043619387, w: 0.99904823}
  m_LocalPosition: {x: 40, y: 0, z: 0}
  m_LocalScale: {x: 0.2, y: 0.2, z: 1}
  m_ConstrainProportionsScale: 0
  m_Children: []
  m_Father: {fileID: 1711729641}
  m_LocalEulerAnglesHint: {x: 0, y: 0, z: 0}
--- !u!114 &1301111578
MonoBehaviour:
  m_ObjectHideFlags: 0
  m_CorrespondingSourceObject: {fileID: 0}
  m_PrefabInstance: {fileID: 0}
  m_PrefabAsset: {fileID: 0}
  m_GameObject: {fileID: 1301111576}
  m_Enabled: 1
  m_EditorHideFlags: 0
  m_Script: {fileID: 11500000, guid: 6875f8caadce09f4499a8b1facf17c27, type: 3}
  m_Name: 
  m_EditorClassIdentifier: 
  makeNodeOnly: 0
  LocalPitch: 0
  customIndicator: {fileID: 0}
  Shot: {fileID: 1004262627135494, guid: 8e1ec1a59ca416c4b9b57022b1b2f213, type: 3}
  ShotSpeed: 6
  LocalOffset: 0
  controller: {fileID: 0}
  OnStoppedFiring:
    m_PersistentCalls:
      m_Calls: []
  SpriteColor: {r: 1, g: 1, b: 1, a: 1}
  SpriteOverride: {fileID: 0}
  ParentToEmitter: 0
  IgnoreGlobalRateScale: 0
  ShotRate: 30
  PauseRate: 100
  PauseLength: 2
  ShotOverlap: -1
  _poolingEnabled: 1
  AutoPool: 0
  AutoPoolOverride: 0
  BankingEnabled: 1
--- !u!212 &1301111579
SpriteRenderer:
  m_ObjectHideFlags: 0
  m_CorrespondingSourceObject: {fileID: 0}
  m_PrefabInstance: {fileID: 0}
  m_PrefabAsset: {fileID: 0}
  m_GameObject: {fileID: 1301111576}
  m_Enabled: 1
  m_CastShadows: 0
  m_ReceiveShadows: 0
  m_DynamicOccludee: 1
  m_StaticShadowCaster: 0
  m_MotionVectors: 1
  m_LightProbeUsage: 0
  m_ReflectionProbeUsage: 0
  m_RayTracingMode: 0
  m_RayTraceProcedural: 0
  m_RenderingLayerMask: 1
  m_RendererPriority: 0
  m_Materials:
  - {fileID: 10754, guid: 0000000000000000f000000000000000, type: 0}
  m_StaticBatchInfo:
    firstSubMesh: 0
    subMeshCount: 0
  m_StaticBatchRoot: {fileID: 0}
  m_ProbeAnchor: {fileID: 0}
  m_LightProbeVolumeOverride: {fileID: 0}
  m_ScaleInLightmap: 1
  m_ReceiveGI: 1
  m_PreserveUVs: 0
  m_IgnoreNormalsForChartDetection: 0
  m_ImportantGI: 0
  m_StitchLightmapSeams: 1
  m_SelectedEditorRenderState: 0
  m_MinimumChartSize: 4
  m_AutoUVMaxDistance: 0.5
  m_AutoUVMaxAngle: 89
  m_LightmapParameters: {fileID: 0}
  m_SortingLayerID: 950124507
  m_SortingLayer: 0
  m_SortingOrder: 10059
  m_Sprite: {fileID: 21300000, guid: 0028a729cfda88245aba79c93755b4e5, type: 3}
  m_Color: {r: 1, g: 1, b: 1, a: 0.51}
  m_FlipX: 0
  m_FlipY: 0
  m_DrawMode: 0
  m_Size: {x: 1, y: 1}
  m_AdaptiveModeThreshold: 0.5
  m_SpriteTileMode: 0
  m_WasSpriteAssigned: 1
  m_MaskInteraction: 0
  m_SpriteSortPoint: 0
--- !u!1 &1405975980
GameObject:
  m_ObjectHideFlags: 0
  m_CorrespondingSourceObject: {fileID: 0}
  m_PrefabInstance: {fileID: 0}
  m_PrefabAsset: {fileID: 0}
  serializedVersion: 6
  m_Component:
  - component: {fileID: 1405975981}
  m_Layer: 0
  m_Name: Emitter(Clone)
  m_TagString: Untagged
  m_Icon: {fileID: 0}
  m_NavMeshLayer: 0
  m_StaticEditorFlags: 0
  m_IsActive: 1
--- !u!4 &1405975981
Transform:
  m_ObjectHideFlags: 0
  m_CorrespondingSourceObject: {fileID: 0}
  m_PrefabInstance: {fileID: 0}
  m_PrefabAsset: {fileID: 0}
  m_GameObject: {fileID: 1405975980}
  serializedVersion: 2
  m_LocalRotation: {x: 0, y: 0, z: -0.3007058, w: 0.95371693}
  m_LocalPosition: {x: 0, y: 3.5, z: 0}
  m_LocalScale: {x: 1, y: 1, z: 1}
  m_ConstrainProportionsScale: 0
  m_Children:
  - {fileID: 299013189}
  m_Father: {fileID: 1939547816}
  m_LocalEulerAnglesHint: {x: 0, y: 0, z: 0}
--- !u!1 &1523408018
GameObject:
  m_ObjectHideFlags: 0
  m_CorrespondingSourceObject: {fileID: 0}
  m_PrefabInstance: {fileID: 0}
  m_PrefabAsset: {fileID: 0}
  serializedVersion: 6
  m_Component:
  - component: {fileID: 1523408019}
  m_Layer: 0
  m_Name: Emitter(Clone)
  m_TagString: Untagged
  m_Icon: {fileID: 0}
  m_NavMeshLayer: 0
  m_StaticEditorFlags: 0
  m_IsActive: 1
--- !u!4 &1523408019
Transform:
  m_ObjectHideFlags: 0
  m_CorrespondingSourceObject: {fileID: 0}
  m_PrefabInstance: {fileID: 0}
  m_PrefabAsset: {fileID: 0}
  m_GameObject: {fileID: 1523408018}
  serializedVersion: 2
  m_LocalRotation: {x: 0, y: 0, z: 0.08715574, w: 0.9961947}
  m_LocalPosition: {x: 0, y: -1, z: 0}
  m_LocalScale: {x: 1, y: 1, z: 1}
  m_ConstrainProportionsScale: 0
  m_Children:
  - {fileID: 2051680531}
  m_Father: {fileID: 1939547816}
  m_LocalEulerAnglesHint: {x: 0, y: 0, z: 0}
--- !u!1 &1568801822
GameObject:
  m_ObjectHideFlags: 0
  m_CorrespondingSourceObject: {fileID: 0}
  m_PrefabInstance: {fileID: 0}
  m_PrefabAsset: {fileID: 0}
  serializedVersion: 6
  m_Component:
  - component: {fileID: 1568801823}
  - component: {fileID: 1568801825}
  - component: {fileID: 1568801824}
  m_Layer: 0
  m_Name: Point
  m_TagString: Untagged
  m_Icon: {fileID: 0}
  m_NavMeshLayer: 0
  m_StaticEditorFlags: 0
  m_IsActive: 1
--- !u!4 &1568801823
Transform:
  m_ObjectHideFlags: 0
  m_CorrespondingSourceObject: {fileID: 0}
  m_PrefabInstance: {fileID: 0}
  m_PrefabAsset: {fileID: 0}
  m_GameObject: {fileID: 1568801822}
  serializedVersion: 2
  m_LocalRotation: {x: 0, y: 0, z: 0, w: 1}
  m_LocalPosition: {x: 40, y: 0, z: 0}
  m_LocalScale: {x: 0.2, y: 0.2, z: 1}
  m_ConstrainProportionsScale: 0
  m_Children: []
  m_Father: {fileID: 1830550257}
  m_LocalEulerAnglesHint: {x: 0, y: 0, z: 0}
--- !u!114 &1568801824
MonoBehaviour:
  m_ObjectHideFlags: 0
  m_CorrespondingSourceObject: {fileID: 0}
  m_PrefabInstance: {fileID: 0}
  m_PrefabAsset: {fileID: 0}
  m_GameObject: {fileID: 1568801822}
  m_Enabled: 1
  m_EditorHideFlags: 0
  m_Script: {fileID: 11500000, guid: 6875f8caadce09f4499a8b1facf17c27, type: 3}
  m_Name: 
  m_EditorClassIdentifier: 
  makeNodeOnly: 0
  LocalPitch: 0
  customIndicator: {fileID: 0}
  Shot: {fileID: 1004262627135494, guid: 8e1ec1a59ca416c4b9b57022b1b2f213, type: 3}
  ShotSpeed: 6
  LocalOffset: 0
  controller: {fileID: 0}
  OnStoppedFiring:
    m_PersistentCalls:
      m_Calls: []
  SpriteColor: {r: 1, g: 1, b: 1, a: 1}
  SpriteOverride: {fileID: 0}
  ParentToEmitter: 0
  IgnoreGlobalRateScale: 0
  ShotRate: 30
  PauseRate: 100
  PauseLength: 2
  ShotOverlap: -1
  _poolingEnabled: 1
  AutoPool: 0
  AutoPoolOverride: 0
  BankingEnabled: 1
--- !u!212 &1568801825
SpriteRenderer:
  m_ObjectHideFlags: 0
  m_CorrespondingSourceObject: {fileID: 0}
  m_PrefabInstance: {fileID: 0}
  m_PrefabAsset: {fileID: 0}
  m_GameObject: {fileID: 1568801822}
  m_Enabled: 1
  m_CastShadows: 0
  m_ReceiveShadows: 0
  m_DynamicOccludee: 1
  m_StaticShadowCaster: 0
  m_MotionVectors: 1
  m_LightProbeUsage: 0
  m_ReflectionProbeUsage: 0
  m_RayTracingMode: 0
  m_RayTraceProcedural: 0
  m_RenderingLayerMask: 1
  m_RendererPriority: 0
  m_Materials:
  - {fileID: 10754, guid: 0000000000000000f000000000000000, type: 0}
  m_StaticBatchInfo:
    firstSubMesh: 0
    subMeshCount: 0
  m_StaticBatchRoot: {fileID: 0}
  m_ProbeAnchor: {fileID: 0}
  m_LightProbeVolumeOverride: {fileID: 0}
  m_ScaleInLightmap: 1
  m_ReceiveGI: 1
  m_PreserveUVs: 0
  m_IgnoreNormalsForChartDetection: 0
  m_ImportantGI: 0
  m_StitchLightmapSeams: 1
  m_SelectedEditorRenderState: 0
  m_MinimumChartSize: 4
  m_AutoUVMaxDistance: 0.5
  m_AutoUVMaxAngle: 89
  m_LightmapParameters: {fileID: 0}
  m_SortingLayerID: 950124507
  m_SortingLayer: 0
  m_SortingOrder: 10069
  m_Sprite: {fileID: 21300000, guid: 0028a729cfda88245aba79c93755b4e5, type: 3}
  m_Color: {r: 1, g: 1, b: 1, a: 0.51}
  m_FlipX: 0
  m_FlipY: 0
  m_DrawMode: 0
  m_Size: {x: 1, y: 1}
  m_AdaptiveModeThreshold: 0.5
  m_SpriteTileMode: 0
  m_WasSpriteAssigned: 1
  m_MaskInteraction: 0
  m_SpriteSortPoint: 0
--- !u!1 &1575847846
GameObject:
  m_ObjectHideFlags: 0
  m_CorrespondingSourceObject: {fileID: 0}
  m_PrefabInstance: {fileID: 0}
  m_PrefabAsset: {fileID: 0}
  serializedVersion: 6
  m_Component:
  - component: {fileID: 1575847847}
  m_Layer: 0
  m_Name: Emitter(Clone)
  m_TagString: Untagged
  m_Icon: {fileID: 0}
  m_NavMeshLayer: 0
  m_StaticEditorFlags: 0
  m_IsActive: 1
--- !u!4 &1575847847
Transform:
  m_ObjectHideFlags: 0
  m_CorrespondingSourceObject: {fileID: 0}
  m_PrefabInstance: {fileID: 0}
  m_PrefabAsset: {fileID: 0}
  m_GameObject: {fileID: 1575847846}
  serializedVersion: 2
  m_LocalRotation: {x: 0, y: 0, z: 0.25881907, w: 0.9659259}
  m_LocalPosition: {x: 0, y: -3, z: 0}
  m_LocalScale: {x: 1, y: 1, z: 1}
  m_ConstrainProportionsScale: 0
  m_Children:
  - {fileID: 942099019}
  m_Father: {fileID: 1939547816}
  m_LocalEulerAnglesHint: {x: 0, y: 0, z: 0}
--- !u!1 &1605978534
GameObject:
  m_ObjectHideFlags: 0
  m_CorrespondingSourceObject: {fileID: 0}
  m_PrefabInstance: {fileID: 0}
  m_PrefabAsset: {fileID: 0}
  serializedVersion: 6
  m_Component:
  - component: {fileID: 1605978535}
  - component: {fileID: 1605978537}
  - component: {fileID: 1605978536}
  m_Layer: 0
  m_Name: Point
  m_TagString: Untagged
  m_Icon: {fileID: 0}
  m_NavMeshLayer: 0
  m_StaticEditorFlags: 0
  m_IsActive: 1
--- !u!4 &1605978535
Transform:
  m_ObjectHideFlags: 0
  m_CorrespondingSourceObject: {fileID: 0}
  m_PrefabInstance: {fileID: 0}
  m_PrefabAsset: {fileID: 0}
  m_GameObject: {fileID: 1605978534}
  serializedVersion: 2
  m_LocalRotation: {x: 0, y: 0, z: -0.043619387, w: 0.99904823}
  m_LocalPosition: {x: 40, y: 0, z: 0}
  m_LocalScale: {x: 0.2, y: 0.2, z: 1}
  m_ConstrainProportionsScale: 0
  m_Children: []
  m_Father: {fileID: 594174459}
  m_LocalEulerAnglesHint: {x: 0, y: 0, z: 0}
--- !u!114 &1605978536
MonoBehaviour:
  m_ObjectHideFlags: 0
  m_CorrespondingSourceObject: {fileID: 0}
  m_PrefabInstance: {fileID: 0}
  m_PrefabAsset: {fileID: 0}
  m_GameObject: {fileID: 1605978534}
  m_Enabled: 1
  m_EditorHideFlags: 0
  m_Script: {fileID: 11500000, guid: 6875f8caadce09f4499a8b1facf17c27, type: 3}
  m_Name: 
  m_EditorClassIdentifier: 
  makeNodeOnly: 0
  LocalPitch: 0
  customIndicator: {fileID: 0}
  Shot: {fileID: 1004262627135494, guid: 8e1ec1a59ca416c4b9b57022b1b2f213, type: 3}
  ShotSpeed: 6
  LocalOffset: 0
  controller: {fileID: 0}
  OnStoppedFiring:
    m_PersistentCalls:
      m_Calls: []
  SpriteColor: {r: 1, g: 1, b: 1, a: 1}
  SpriteOverride: {fileID: 0}
  ParentToEmitter: 0
  IgnoreGlobalRateScale: 0
  ShotRate: 30
  PauseRate: 100
  PauseLength: 2
  ShotOverlap: -1
  _poolingEnabled: 1
  AutoPool: 0
  AutoPoolOverride: 0
  BankingEnabled: 1
--- !u!212 &1605978537
SpriteRenderer:
  m_ObjectHideFlags: 0
  m_CorrespondingSourceObject: {fileID: 0}
  m_PrefabInstance: {fileID: 0}
  m_PrefabAsset: {fileID: 0}
  m_GameObject: {fileID: 1605978534}
  m_Enabled: 1
  m_CastShadows: 0
  m_ReceiveShadows: 0
  m_DynamicOccludee: 1
  m_StaticShadowCaster: 0
  m_MotionVectors: 1
  m_LightProbeUsage: 0
  m_ReflectionProbeUsage: 0
  m_RayTracingMode: 0
  m_RayTraceProcedural: 0
  m_RenderingLayerMask: 1
  m_RendererPriority: 0
  m_Materials:
  - {fileID: 10754, guid: 0000000000000000f000000000000000, type: 0}
  m_StaticBatchInfo:
    firstSubMesh: 0
    subMeshCount: 0
  m_StaticBatchRoot: {fileID: 0}
  m_ProbeAnchor: {fileID: 0}
  m_LightProbeVolumeOverride: {fileID: 0}
  m_ScaleInLightmap: 1
  m_ReceiveGI: 1
  m_PreserveUVs: 0
  m_IgnoreNormalsForChartDetection: 0
  m_ImportantGI: 0
  m_StitchLightmapSeams: 1
  m_SelectedEditorRenderState: 0
  m_MinimumChartSize: 4
  m_AutoUVMaxDistance: 0.5
  m_AutoUVMaxAngle: 89
  m_LightmapParameters: {fileID: 0}
  m_SortingLayerID: 950124507
  m_SortingLayer: 0
  m_SortingOrder: 10009
  m_Sprite: {fileID: 21300000, guid: 0028a729cfda88245aba79c93755b4e5, type: 3}
  m_Color: {r: 1, g: 1, b: 1, a: 0.51}
  m_FlipX: 0
  m_FlipY: 0
  m_DrawMode: 0
  m_Size: {x: 1, y: 1}
  m_AdaptiveModeThreshold: 0.5
  m_SpriteTileMode: 0
  m_WasSpriteAssigned: 1
  m_MaskInteraction: 0
  m_SpriteSortPoint: 0
--- !u!1 &1612900730
GameObject:
  m_ObjectHideFlags: 0
  m_CorrespondingSourceObject: {fileID: 0}
  m_PrefabInstance: {fileID: 0}
  m_PrefabAsset: {fileID: 0}
  serializedVersion: 6
  m_Component:
  - component: {fileID: 1612900735}
  - component: {fileID: 1612900734}
  - component: {fileID: 1612900732}
  - component: {fileID: 1612900731}
  - component: {fileID: 1612900736}
  m_Layer: 0
  m_Name: Main Camera
  m_TagString: MainCamera
  m_Icon: {fileID: 0}
  m_NavMeshLayer: 0
  m_StaticEditorFlags: 0
  m_IsActive: 1
--- !u!81 &1612900731
AudioListener:
  m_ObjectHideFlags: 0
  m_CorrespondingSourceObject: {fileID: 0}
  m_PrefabInstance: {fileID: 0}
  m_PrefabAsset: {fileID: 0}
  m_GameObject: {fileID: 1612900730}
  m_Enabled: 1
--- !u!124 &1612900732
Behaviour:
  m_ObjectHideFlags: 0
  m_CorrespondingSourceObject: {fileID: 0}
  m_PrefabInstance: {fileID: 0}
  m_PrefabAsset: {fileID: 0}
  m_GameObject: {fileID: 1612900730}
  m_Enabled: 1
--- !u!20 &1612900734
Camera:
  m_ObjectHideFlags: 0
  m_CorrespondingSourceObject: {fileID: 0}
  m_PrefabInstance: {fileID: 0}
  m_PrefabAsset: {fileID: 0}
  m_GameObject: {fileID: 1612900730}
  m_Enabled: 1
  serializedVersion: 2
  m_ClearFlags: 1
  m_BackGroundColor: {r: 0.02854672, g: 0.051758952, b: 0.08823532, a: 0}
  m_projectionMatrixMode: 1
  m_GateFitMode: 2
  m_FOVAxisMode: 0
  m_Iso: 200
  m_ShutterSpeed: 0.005
  m_Aperture: 16
  m_FocusDistance: 10
  m_FocalLength: 50
  m_BladeCount: 5
  m_Curvature: {x: 2, y: 11}
  m_BarrelClipping: 0.25
  m_Anamorphism: 0
  m_SensorSize: {x: 36, y: 24}
  m_LensShift: {x: 0, y: 0}
  m_NormalizedViewPortRect:
    serializedVersion: 2
    x: 0
    y: 0
    width: 1
    height: 1
  near clip plane: 0.3
  far clip plane: 1000
  field of view: 60
  orthographic: 1
  orthographic size: 18
  m_Depth: -1
  m_CullingMask:
    serializedVersion: 2
    m_Bits: 4294967295
  m_RenderingPath: -1
  m_TargetTexture: {fileID: 0}
  m_TargetDisplay: 0
  m_TargetEye: 3
  m_HDR: 0
  m_AllowMSAA: 1
  m_AllowDynamicResolution: 0
  m_ForceIntoRT: 0
  m_OcclusionCulling: 1
  m_StereoConvergence: 10
  m_StereoSeparation: 0.022
--- !u!4 &1612900735
Transform:
  m_ObjectHideFlags: 0
  m_CorrespondingSourceObject: {fileID: 0}
  m_PrefabInstance: {fileID: 0}
  m_PrefabAsset: {fileID: 0}
  m_GameObject: {fileID: 1612900730}
  serializedVersion: 2
  m_LocalRotation: {x: 0, y: 0, z: 0, w: 1}
  m_LocalPosition: {x: 0, y: 0, z: -10}
  m_LocalScale: {x: 1, y: 1, z: 1}
  m_ConstrainProportionsScale: 0
  m_Children: []
  m_Father: {fileID: 0}
  m_LocalEulerAnglesHint: {x: 0, y: 0, z: 0}
--- !u!114 &1612900736
MonoBehaviour:
  m_ObjectHideFlags: 0
  m_CorrespondingSourceObject: {fileID: 0}
  m_PrefabInstance: {fileID: 0}
  m_PrefabAsset: {fileID: 0}
  m_GameObject: {fileID: 1612900730}
  m_Enabled: 1
  m_EditorHideFlags: 0
  m_Script: {fileID: 11500000, guid: f3614facfe7ba7a47ab05a9a5ebf31c2, type: 3}
  m_Name: 
  m_EditorClassIdentifier: 
  DemoVersion: 1
  SuppressWarning: 0
--- !u!1 &1670293161
GameObject:
  m_ObjectHideFlags: 0
  m_CorrespondingSourceObject: {fileID: 0}
  m_PrefabInstance: {fileID: 0}
  m_PrefabAsset: {fileID: 0}
  serializedVersion: 6
  m_Component:
  - component: {fileID: 1670293162}
  - component: {fileID: 1670293164}
  - component: {fileID: 1670293163}
  m_Layer: 0
  m_Name: Point
  m_TagString: Untagged
  m_Icon: {fileID: 0}
  m_NavMeshLayer: 0
  m_StaticEditorFlags: 0
  m_IsActive: 1
--- !u!4 &1670293162
Transform:
  m_ObjectHideFlags: 0
  m_CorrespondingSourceObject: {fileID: 0}
  m_PrefabInstance: {fileID: 0}
  m_PrefabAsset: {fileID: 0}
  m_GameObject: {fileID: 1670293161}
  serializedVersion: 2
  m_LocalRotation: {x: 0, y: 0, z: 0.043619387, w: 0.99904823}
  m_LocalPosition: {x: 40, y: 0, z: 0}
  m_LocalScale: {x: 0.2, y: 0.2, z: 1}
  m_ConstrainProportionsScale: 0
  m_Children: []
  m_Father: {fileID: 858848063}
  m_LocalEulerAnglesHint: {x: 0, y: 0, z: 0}
--- !u!114 &1670293163
MonoBehaviour:
  m_ObjectHideFlags: 0
  m_CorrespondingSourceObject: {fileID: 0}
  m_PrefabInstance: {fileID: 0}
  m_PrefabAsset: {fileID: 0}
  m_GameObject: {fileID: 1670293161}
  m_Enabled: 1
  m_EditorHideFlags: 0
  m_Script: {fileID: 11500000, guid: 6875f8caadce09f4499a8b1facf17c27, type: 3}
  m_Name: 
  m_EditorClassIdentifier: 
  makeNodeOnly: 0
  LocalPitch: 0
  customIndicator: {fileID: 0}
  Shot: {fileID: 1026459205134466, guid: 1456812e36c805e4899e5ca58cee08b1, type: 3}
  ShotSpeed: 6
  LocalOffset: 0
  controller: {fileID: 0}
  OnStoppedFiring:
    m_PersistentCalls:
      m_Calls: []
  SpriteColor: {r: 1, g: 1, b: 1, a: 1}
  SpriteOverride: {fileID: 0}
  ParentToEmitter: 0
  IgnoreGlobalRateScale: 0
  ShotRate: 30
  PauseRate: 100
  PauseLength: 2
  ShotOverlap: -1
  _poolingEnabled: 1
  AutoPool: 0
  AutoPoolOverride: 0
  BankingEnabled: 1
--- !u!212 &1670293164
SpriteRenderer:
  m_ObjectHideFlags: 0
  m_CorrespondingSourceObject: {fileID: 0}
  m_PrefabInstance: {fileID: 0}
  m_PrefabAsset: {fileID: 0}
  m_GameObject: {fileID: 1670293161}
  m_Enabled: 1
  m_CastShadows: 0
  m_ReceiveShadows: 0
  m_DynamicOccludee: 1
  m_StaticShadowCaster: 0
  m_MotionVectors: 1
  m_LightProbeUsage: 0
  m_ReflectionProbeUsage: 0
  m_RayTracingMode: 0
  m_RayTraceProcedural: 0
  m_RenderingLayerMask: 1
  m_RendererPriority: 0
  m_Materials:
  - {fileID: 10754, guid: 0000000000000000f000000000000000, type: 0}
  m_StaticBatchInfo:
    firstSubMesh: 0
    subMeshCount: 0
  m_StaticBatchRoot: {fileID: 0}
  m_ProbeAnchor: {fileID: 0}
  m_LightProbeVolumeOverride: {fileID: 0}
  m_ScaleInLightmap: 1
  m_ReceiveGI: 1
  m_PreserveUVs: 0
  m_IgnoreNormalsForChartDetection: 0
  m_ImportantGI: 0
  m_StitchLightmapSeams: 1
  m_SelectedEditorRenderState: 0
  m_MinimumChartSize: 4
  m_AutoUVMaxDistance: 0.5
  m_AutoUVMaxAngle: 89
  m_LightmapParameters: {fileID: 0}
  m_SortingLayerID: 950124507
  m_SortingLayer: 0
  m_SortingOrder: 10079
  m_Sprite: {fileID: 21300000, guid: 0028a729cfda88245aba79c93755b4e5, type: 3}
  m_Color: {r: 1, g: 1, b: 1, a: 0.51}
  m_FlipX: 0
  m_FlipY: 0
  m_DrawMode: 0
  m_Size: {x: 1, y: 1}
  m_AdaptiveModeThreshold: 0.5
  m_SpriteTileMode: 0
  m_WasSpriteAssigned: 1
  m_MaskInteraction: 0
  m_SpriteSortPoint: 0
--- !u!1 &1711729640
GameObject:
  m_ObjectHideFlags: 0
  m_CorrespondingSourceObject: {fileID: 0}
  m_PrefabInstance: {fileID: 0}
  m_PrefabAsset: {fileID: 0}
  serializedVersion: 6
  m_Component:
  - component: {fileID: 1711729641}
  m_Layer: 0
  m_Name: Emitter(Clone)
  m_TagString: Untagged
  m_Icon: {fileID: 0}
  m_NavMeshLayer: 0
  m_StaticEditorFlags: 0
  m_IsActive: 1
--- !u!4 &1711729641
Transform:
  m_ObjectHideFlags: 0
  m_CorrespondingSourceObject: {fileID: 0}
  m_PrefabInstance: {fileID: 0}
  m_PrefabAsset: {fileID: 0}
  m_GameObject: {fileID: 1711729640}
  serializedVersion: 2
  m_LocalRotation: {x: 0, y: 0, z: -0.043619387, w: 0.99904823}
  m_LocalPosition: {x: 0, y: 0.5, z: 0}
  m_LocalScale: {x: 1, y: 1, z: 1}
  m_ConstrainProportionsScale: 0
  m_Children:
  - {fileID: 1301111577}
  m_Father: {fileID: 1939547816}
  m_LocalEulerAnglesHint: {x: 0, y: 0, z: 0}
--- !u!1 &1781823367
GameObject:
  m_ObjectHideFlags: 0
  m_CorrespondingSourceObject: {fileID: 0}
  m_PrefabInstance: {fileID: 0}
  m_PrefabAsset: {fileID: 0}
  serializedVersion: 6
  m_Component:
  - component: {fileID: 1781823371}
  - component: {fileID: 1781823370}
  - component: {fileID: 1781823369}
  - component: {fileID: 1781823373}
  - component: {fileID: 1781823368}
  - component: {fileID: 1781823372}
  m_Layer: 8
  m_Name: Player
  m_TagString: Untagged
  m_Icon: {fileID: 0}
  m_NavMeshLayer: 0
  m_StaticEditorFlags: 0
  m_IsActive: 1
--- !u!114 &1781823368
MonoBehaviour:
  m_ObjectHideFlags: 0
  m_CorrespondingSourceObject: {fileID: 0}
  m_PrefabInstance: {fileID: 0}
  m_PrefabAsset: {fileID: 0}
  m_GameObject: {fileID: 1781823367}
  m_Enabled: 1
  m_EditorHideFlags: 0
  m_Script: {fileID: 11500000, guid: c6bdab4970d7c974e9a229d0f0cac24e, type: 3}
  m_Name: 
  m_EditorClassIdentifier: 
  Speed: 12
  auto: 0
  AutoRange: {x: 0, y: 0}
  UsesPhysics: 0
  IgnoreXInput: 0
  IgnoreYInput: 0
  Ground: {fileID: 0}
--- !u!58 &1781823369
CircleCollider2D:
  m_ObjectHideFlags: 0
  m_CorrespondingSourceObject: {fileID: 0}
  m_PrefabInstance: {fileID: 0}
  m_PrefabAsset: {fileID: 0}
  m_GameObject: {fileID: 1781823367}
  m_Enabled: 1
  m_Density: 1
  m_Material: {fileID: 0}
  m_IncludeLayers:
    serializedVersion: 2
    m_Bits: 0
  m_ExcludeLayers:
    serializedVersion: 2
    m_Bits: 0
  m_LayerOverridePriority: 0
  m_ForceSendLayers:
    serializedVersion: 2
    m_Bits: 4294967295
  m_ForceReceiveLayers:
    serializedVersion: 2
    m_Bits: 4294967295
  m_ContactCaptureLayers:
    serializedVersion: 2
    m_Bits: 4294967295
  m_CallbackLayers:
    serializedVersion: 2
    m_Bits: 4294967295
  m_IsTrigger: 0
  m_UsedByEffector: 0
  m_UsedByComposite: 0
  m_Offset: {x: 0.29, y: 0}
  serializedVersion: 2
  m_Radius: 0.25
--- !u!212 &1781823370
SpriteRenderer:
  m_ObjectHideFlags: 0
  m_CorrespondingSourceObject: {fileID: 0}
  m_PrefabInstance: {fileID: 0}
  m_PrefabAsset: {fileID: 0}
  m_GameObject: {fileID: 1781823367}
  m_Enabled: 1
  m_CastShadows: 0
  m_ReceiveShadows: 0
  m_DynamicOccludee: 1
  m_StaticShadowCaster: 0
  m_MotionVectors: 1
  m_LightProbeUsage: 1
  m_ReflectionProbeUsage: 1
  m_RayTracingMode: 0
  m_RayTraceProcedural: 0
  m_RenderingLayerMask: 1
  m_RendererPriority: 0
  m_Materials:
  - {fileID: 10754, guid: 0000000000000000f000000000000000, type: 0}
  m_StaticBatchInfo:
    firstSubMesh: 0
    subMeshCount: 0
  m_StaticBatchRoot: {fileID: 0}
  m_ProbeAnchor: {fileID: 0}
  m_LightProbeVolumeOverride: {fileID: 0}
  m_ScaleInLightmap: 1
  m_ReceiveGI: 1
  m_PreserveUVs: 0
  m_IgnoreNormalsForChartDetection: 0
  m_ImportantGI: 0
  m_StitchLightmapSeams: 1
  m_SelectedEditorRenderState: 0
  m_MinimumChartSize: 4
  m_AutoUVMaxDistance: 0.5
  m_AutoUVMaxAngle: 89
  m_LightmapParameters: {fileID: 0}
  m_SortingLayerID: -564058313
  m_SortingLayer: 0
  m_SortingOrder: 0
  m_Sprite: {fileID: 21300000, guid: 488f2fe04aa98d0448bc0b1d36c9d1b2, type: 3}
  m_Color: {r: 1, g: 1, b: 1, a: 1}
  m_FlipX: 0
  m_FlipY: 0
  m_DrawMode: 0
  m_Size: {x: 8.533334, y: 8.533334}
  m_AdaptiveModeThreshold: 0.5
  m_SpriteTileMode: 0
  m_WasSpriteAssigned: 1
  m_MaskInteraction: 0
  m_SpriteSortPoint: 0
--- !u!4 &1781823371
Transform:
  m_ObjectHideFlags: 0
  m_CorrespondingSourceObject: {fileID: 0}
  m_PrefabInstance: {fileID: 0}
  m_PrefabAsset: {fileID: 0}
  m_GameObject: {fileID: 1781823367}
  serializedVersion: 2
  m_LocalRotation: {x: 0, y: 0, z: 0.7071068, w: 0.7071068}
  m_LocalPosition: {x: 0, y: -12.5, z: 0}
  m_LocalScale: {x: 1, y: 1, z: 1}
  m_ConstrainProportionsScale: 0
  m_Children: []
  m_Father: {fileID: 0}
  m_LocalEulerAnglesHint: {x: 0, y: 0, z: 90}
--- !u!114 &1781823372
MonoBehaviour:
  m_ObjectHideFlags: 0
  m_CorrespondingSourceObject: {fileID: 0}
  m_PrefabInstance: {fileID: 0}
  m_PrefabAsset: {fileID: 0}
  m_GameObject: {fileID: 1781823367}
  m_Enabled: 1
  m_EditorHideFlags: 0
  m_Script: {fileID: 11500000, guid: e499963cb47ff564bad07a0b64f6b263, type: 3}
  m_Name: 
  m_EditorClassIdentifier: 
  CollisionList:
  - ND_EnemyBullet
  LaserExplosion: 
  BulletExplosion: ExplosionWhirl
  ParentExplosion: 0
  DeathExplosion: ExplosionWhirl
  HP: 10
  FinalExplodeFactor: 2
  DamageFlicker: 1
  FlickerDuration: 5
  DamageColor: {r: 1, g: 0, b: 0.93103456, a: 1}
--- !u!50 &1781823373
Rigidbody2D:
  serializedVersion: 4
  m_ObjectHideFlags: 0
  m_CorrespondingSourceObject: {fileID: 0}
  m_PrefabInstance: {fileID: 0}
  m_PrefabAsset: {fileID: 0}
  m_GameObject: {fileID: 1781823367}
  m_BodyType: 0
  m_Simulated: 1
  m_UseFullKinematicContacts: 0
  m_UseAutoMass: 0
  m_Mass: 1
  m_LinearDrag: 0
  m_AngularDrag: 0.05
  m_GravityScale: 0
  m_Material: {fileID: 0}
  m_IncludeLayers:
    serializedVersion: 2
    m_Bits: 0
  m_ExcludeLayers:
    serializedVersion: 2
    m_Bits: 0
  m_Interpolate: 0
  m_SleepingMode: 1
  m_CollisionDetection: 0
  m_Constraints: 7
--- !u!1 &1794016483
GameObject:
  m_ObjectHideFlags: 0
  m_CorrespondingSourceObject: {fileID: 0}
  m_PrefabInstance: {fileID: 0}
  m_PrefabAsset: {fileID: 0}
  serializedVersion: 6
  m_Component:
  - component: {fileID: 1794016484}
  m_Layer: 0
  m_Name: Emitter(Clone)
  m_TagString: Untagged
  m_Icon: {fileID: 0}
  m_NavMeshLayer: 0
  m_StaticEditorFlags: 0
  m_IsActive: 1
--- !u!4 &1794016484
Transform:
  m_ObjectHideFlags: 0
  m_CorrespondingSourceObject: {fileID: 0}
  m_PrefabInstance: {fileID: 0}
  m_PrefabAsset: {fileID: 0}
  m_GameObject: {fileID: 1794016483}
  serializedVersion: 2
  m_LocalRotation: {x: 0, y: 0, z: 0.21643962, w: 0.976296}
  m_LocalPosition: {x: 0, y: -2.5, z: 0}
  m_LocalScale: {x: 1, y: 1, z: 1}
  m_ConstrainProportionsScale: 0
  m_Children:
  - {fileID: 51375157}
  m_Father: {fileID: 1939547816}
  m_LocalEulerAnglesHint: {x: 0, y: 0, z: 0}
--- !u!1 &1830550256
GameObject:
  m_ObjectHideFlags: 0
  m_CorrespondingSourceObject: {fileID: 0}
  m_PrefabInstance: {fileID: 0}
  m_PrefabAsset: {fileID: 0}
  serializedVersion: 6
  m_Component:
  - component: {fileID: 1830550257}
  m_Layer: 0
  m_Name: Emitter(Clone)
  m_TagString: Untagged
  m_Icon: {fileID: 0}
  m_NavMeshLayer: 0
  m_StaticEditorFlags: 0
  m_IsActive: 1
--- !u!4 &1830550257
Transform:
  m_ObjectHideFlags: 0
  m_CorrespondingSourceObject: {fileID: 0}
  m_PrefabInstance: {fileID: 0}
  m_PrefabAsset: {fileID: 0}
  m_GameObject: {fileID: 1830550256}
  serializedVersion: 2
  m_LocalRotation: {x: 0, y: 0, z: 0, w: 1}
  m_LocalPosition: {x: 0, y: 0, z: 0}
  m_LocalScale: {x: 1, y: 1, z: 1}
  m_ConstrainProportionsScale: 0
  m_Children:
  - {fileID: 1568801823}
  m_Father: {fileID: 1939547816}
  m_LocalEulerAnglesHint: {x: 0, y: 0, z: 0}
--- !u!1 &1856815643
GameObject:
  m_ObjectHideFlags: 0
  m_CorrespondingSourceObject: {fileID: 0}
  m_PrefabInstance: {fileID: 0}
  m_PrefabAsset: {fileID: 0}
  serializedVersion: 6
  m_Component:
  - component: {fileID: 1856815644}
  m_Layer: 0
  m_Name: Emitter(Clone)
  m_TagString: Untagged
  m_Icon: {fileID: 0}
  m_NavMeshLayer: 0
  m_StaticEditorFlags: 0
  m_IsActive: 1
--- !u!4 &1856815644
Transform:
  m_ObjectHideFlags: 0
  m_CorrespondingSourceObject: {fileID: 0}
  m_PrefabInstance: {fileID: 0}
  m_PrefabAsset: {fileID: 0}
  m_GameObject: {fileID: 1856815643}
  serializedVersion: 2
  m_LocalRotation: {x: 0, y: 0, z: -0.1305262, w: 0.9914449}
  m_LocalPosition: {x: 0, y: 1.5, z: 0}
  m_LocalScale: {x: 1, y: 1, z: 1}
  m_ConstrainProportionsScale: 0
  m_Children:
  - {fileID: 1059338173}
  m_Father: {fileID: 1939547816}
  m_LocalEulerAnglesHint: {x: 0, y: 0, z: 0}
--- !u!4 &1939547816 stripped
Transform:
  m_CorrespondingSourceObject: {fileID: 4000012973986434, guid: 5d5a70f9bf23cff40b76aa2464691e73, type: 3}
  m_PrefabInstance: {fileID: 126476228}
  m_PrefabAsset: {fileID: 0}
--- !u!1 &1982574960
GameObject:
  m_ObjectHideFlags: 0
  m_CorrespondingSourceObject: {fileID: 0}
  m_PrefabInstance: {fileID: 0}
  m_PrefabAsset: {fileID: 0}
  serializedVersion: 6
  m_Component:
  - component: {fileID: 1982574961}
  m_Layer: 0
  m_Name: Emitter(Clone)
  m_TagString: Untagged
  m_Icon: {fileID: 0}
  m_NavMeshLayer: 0
  m_StaticEditorFlags: 0
  m_IsActive: 1
--- !u!4 &1982574961
Transform:
  m_ObjectHideFlags: 0
  m_CorrespondingSourceObject: {fileID: 0}
  m_PrefabInstance: {fileID: 0}
  m_PrefabAsset: {fileID: 0}
  m_GameObject: {fileID: 1982574960}
  serializedVersion: 2
  m_LocalRotation: {x: 0, y: 0, z: 0.043619387, w: 0.99904823}
  m_LocalPosition: {x: 0, y: -0.5, z: 0}
  m_LocalScale: {x: 1, y: 1, z: 1}
  m_ConstrainProportionsScale: 0
  m_Children:
  - {fileID: 794946282}
  m_Father: {fileID: 1939547816}
  m_LocalEulerAnglesHint: {x: 0, y: 0, z: 0}
--- !u!1 &1997581092
GameObject:
  m_ObjectHideFlags: 0
  m_CorrespondingSourceObject: {fileID: 0}
  m_PrefabInstance: {fileID: 0}
  m_PrefabAsset: {fileID: 0}
  serializedVersion: 6
  m_Component:
  - component: {fileID: 1997581093}
  - component: {fileID: 1997581095}
  - component: {fileID: 1997581094}
  m_Layer: 0
  m_Name: Point
  m_TagString: Untagged
  m_Icon: {fileID: 0}
  m_NavMeshLayer: 0
  m_StaticEditorFlags: 0
  m_IsActive: 1
--- !u!4 &1997581093
Transform:
  m_ObjectHideFlags: 0
  m_CorrespondingSourceObject: {fileID: 0}
  m_PrefabInstance: {fileID: 0}
  m_PrefabAsset: {fileID: 0}
  m_GameObject: {fileID: 1997581092}
  serializedVersion: 2
  m_LocalRotation: {x: 0, y: 0, z: 0.043619387, w: 0.99904823}
  m_LocalPosition: {x: 40, y: 0, z: 0}
  m_LocalScale: {x: 0.2, y: 0.2, z: 1}
  m_ConstrainProportionsScale: 0
  m_Children: []
  m_Father: {fileID: 2019346844}
  m_LocalEulerAnglesHint: {x: 0, y: 0, z: 0}
--- !u!114 &1997581094
MonoBehaviour:
  m_ObjectHideFlags: 0
  m_CorrespondingSourceObject: {fileID: 0}
  m_PrefabInstance: {fileID: 0}
  m_PrefabAsset: {fileID: 0}
  m_GameObject: {fileID: 1997581092}
  m_Enabled: 1
  m_EditorHideFlags: 0
  m_Script: {fileID: 11500000, guid: 6875f8caadce09f4499a8b1facf17c27, type: 3}
  m_Name: 
  m_EditorClassIdentifier: 
  makeNodeOnly: 0
  LocalPitch: 0
  customIndicator: {fileID: 0}
  Shot: {fileID: 1026459205134466, guid: 1456812e36c805e4899e5ca58cee08b1, type: 3}
  ShotSpeed: 6
  LocalOffset: 0
  controller: {fileID: 0}
  OnStoppedFiring:
    m_PersistentCalls:
      m_Calls: []
  SpriteColor: {r: 1, g: 1, b: 1, a: 1}
  SpriteOverride: {fileID: 0}
  ParentToEmitter: 0
  IgnoreGlobalRateScale: 0
  ShotRate: 30
  PauseRate: 100
  PauseLength: 2
  ShotOverlap: -1
  _poolingEnabled: 1
  AutoPool: 0
  AutoPoolOverride: 0
  BankingEnabled: 1
--- !u!212 &1997581095
SpriteRenderer:
  m_ObjectHideFlags: 0
  m_CorrespondingSourceObject: {fileID: 0}
  m_PrefabInstance: {fileID: 0}
  m_PrefabAsset: {fileID: 0}
  m_GameObject: {fileID: 1997581092}
  m_Enabled: 1
  m_CastShadows: 0
  m_ReceiveShadows: 0
  m_DynamicOccludee: 1
  m_StaticShadowCaster: 0
  m_MotionVectors: 1
  m_LightProbeUsage: 0
  m_ReflectionProbeUsage: 0
  m_RayTracingMode: 0
  m_RayTraceProcedural: 0
  m_RenderingLayerMask: 1
  m_RendererPriority: 0
  m_Materials:
  - {fileID: 10754, guid: 0000000000000000f000000000000000, type: 0}
  m_StaticBatchInfo:
    firstSubMesh: 0
    subMeshCount: 0
  m_StaticBatchRoot: {fileID: 0}
  m_ProbeAnchor: {fileID: 0}
  m_LightProbeVolumeOverride: {fileID: 0}
  m_ScaleInLightmap: 1
  m_ReceiveGI: 1
  m_PreserveUVs: 0
  m_IgnoreNormalsForChartDetection: 0
  m_ImportantGI: 0
  m_StitchLightmapSeams: 1
  m_SelectedEditorRenderState: 0
  m_MinimumChartSize: 4
  m_AutoUVMaxDistance: 0.5
  m_AutoUVMaxAngle: 89
  m_LightmapParameters: {fileID: 0}
  m_SortingLayerID: 950124507
  m_SortingLayer: 0
  m_SortingOrder: 10079
  m_Sprite: {fileID: 21300000, guid: 0028a729cfda88245aba79c93755b4e5, type: 3}
  m_Color: {r: 1, g: 1, b: 1, a: 0.51}
  m_FlipX: 0
  m_FlipY: 0
  m_DrawMode: 0
  m_Size: {x: 1, y: 1}
  m_AdaptiveModeThreshold: 0.5
  m_SpriteTileMode: 0
  m_WasSpriteAssigned: 1
  m_MaskInteraction: 0
  m_SpriteSortPoint: 0
--- !u!1 &2019346843
GameObject:
  m_ObjectHideFlags: 0
  m_CorrespondingSourceObject: {fileID: 0}
  m_PrefabInstance: {fileID: 0}
  m_PrefabAsset: {fileID: 0}
  serializedVersion: 6
  m_Component:
  - component: {fileID: 2019346844}
  m_Layer: 0
  m_Name: Emitter(Clone)
  m_TagString: Untagged
  m_Icon: {fileID: 0}
  m_NavMeshLayer: 0
  m_StaticEditorFlags: 0
  m_IsActive: 1
--- !u!4 &2019346844
Transform:
  m_ObjectHideFlags: 0
  m_CorrespondingSourceObject: {fileID: 0}
  m_PrefabInstance: {fileID: 0}
  m_PrefabAsset: {fileID: 0}
  m_GameObject: {fileID: 2019346843}
  serializedVersion: 2
  m_LocalRotation: {x: 0, y: 0, z: 0.3007058, w: 0.95371693}
  m_LocalPosition: {x: 0, y: -3.5, z: 0}
  m_LocalScale: {x: 1, y: 1, z: 1}
  m_ConstrainProportionsScale: 0
  m_Children:
  - {fileID: 1997581093}
  m_Father: {fileID: 1939547816}
  m_LocalEulerAnglesHint: {x: 0, y: 0, z: 0}
--- !u!1 &2051680530
GameObject:
  m_ObjectHideFlags: 0
  m_CorrespondingSourceObject: {fileID: 0}
  m_PrefabInstance: {fileID: 0}
  m_PrefabAsset: {fileID: 0}
  serializedVersion: 6
  m_Component:
  - component: {fileID: 2051680531}
  - component: {fileID: 2051680533}
  - component: {fileID: 2051680532}
  m_Layer: 0
  m_Name: Point
  m_TagString: Untagged
  m_Icon: {fileID: 0}
  m_NavMeshLayer: 0
  m_StaticEditorFlags: 0
  m_IsActive: 1
--- !u!4 &2051680531
Transform:
  m_ObjectHideFlags: 0
  m_CorrespondingSourceObject: {fileID: 0}
  m_PrefabInstance: {fileID: 0}
  m_PrefabAsset: {fileID: 0}
  m_GameObject: {fileID: 2051680530}
  serializedVersion: 2
  m_LocalRotation: {x: 0, y: 0, z: 0.043619387, w: 0.99904823}
  m_LocalPosition: {x: 40, y: 0, z: 0}
  m_LocalScale: {x: 0.2, y: 0.2, z: 1}
  m_ConstrainProportionsScale: 0
  m_Children: []
  m_Father: {fileID: 1523408019}
  m_LocalEulerAnglesHint: {x: 0, y: 0, z: 0}
--- !u!114 &2051680532
MonoBehaviour:
  m_ObjectHideFlags: 0
  m_CorrespondingSourceObject: {fileID: 0}
  m_PrefabInstance: {fileID: 0}
  m_PrefabAsset: {fileID: 0}
  m_GameObject: {fileID: 2051680530}
  m_Enabled: 1
  m_EditorHideFlags: 0
  m_Script: {fileID: 11500000, guid: 6875f8caadce09f4499a8b1facf17c27, type: 3}
  m_Name: 
  m_EditorClassIdentifier: 
  makeNodeOnly: 0
  LocalPitch: 0
  customIndicator: {fileID: 0}
  Shot: {fileID: 1004262627135494, guid: 8e1ec1a59ca416c4b9b57022b1b2f213, type: 3}
  ShotSpeed: 6
  LocalOffset: 0
  controller: {fileID: 0}
  OnStoppedFiring:
    m_PersistentCalls:
      m_Calls: []
  SpriteColor: {r: 1, g: 1, b: 1, a: 1}
  SpriteOverride: {fileID: 0}
  ParentToEmitter: 0
  IgnoreGlobalRateScale: 0
  ShotRate: 30
  PauseRate: 100
  PauseLength: 2
  ShotOverlap: -1
  _poolingEnabled: 1
  AutoPool: 0
  AutoPoolOverride: 0
  BankingEnabled: 1
--- !u!212 &2051680533
SpriteRenderer:
  m_ObjectHideFlags: 0
  m_CorrespondingSourceObject: {fileID: 0}
  m_PrefabInstance: {fileID: 0}
  m_PrefabAsset: {fileID: 0}
  m_GameObject: {fileID: 2051680530}
  m_Enabled: 1
  m_CastShadows: 0
  m_ReceiveShadows: 0
  m_DynamicOccludee: 1
  m_StaticShadowCaster: 0
  m_MotionVectors: 1
  m_LightProbeUsage: 0
  m_ReflectionProbeUsage: 0
  m_RayTracingMode: 0
  m_RayTraceProcedural: 0
  m_RenderingLayerMask: 1
  m_RendererPriority: 0
  m_Materials:
  - {fileID: 10754, guid: 0000000000000000f000000000000000, type: 0}
  m_StaticBatchInfo:
    firstSubMesh: 0
    subMeshCount: 0
  m_StaticBatchRoot: {fileID: 0}
  m_ProbeAnchor: {fileID: 0}
  m_LightProbeVolumeOverride: {fileID: 0}
  m_ScaleInLightmap: 1
  m_ReceiveGI: 1
  m_PreserveUVs: 0
  m_IgnoreNormalsForChartDetection: 0
  m_ImportantGI: 0
  m_StitchLightmapSeams: 1
  m_SelectedEditorRenderState: 0
  m_MinimumChartSize: 4
  m_AutoUVMaxDistance: 0.5
  m_AutoUVMaxAngle: 89
  m_LightmapParameters: {fileID: 0}
  m_SortingLayerID: 950124507
  m_SortingLayer: 0
  m_SortingOrder: 10089
  m_Sprite: {fileID: 21300000, guid: 0028a729cfda88245aba79c93755b4e5, type: 3}
  m_Color: {r: 1, g: 1, b: 1, a: 0.51}
  m_FlipX: 0
  m_FlipY: 0
  m_DrawMode: 0
  m_Size: {x: 1, y: 1}
  m_AdaptiveModeThreshold: 0.5
  m_SpriteTileMode: 0
  m_WasSpriteAssigned: 1
  m_MaskInteraction: 0
  m_SpriteSortPoint: 0
--- !u!1 &2076180605 stripped
GameObject:
  m_CorrespondingSourceObject: {fileID: 1000013902785618, guid: 5d5a70f9bf23cff40b76aa2464691e73, type: 3}
  m_PrefabInstance: {fileID: 126476228}
  m_PrefabAsset: {fileID: 0}
--- !u!114 &2076180606
MonoBehaviour:
  m_ObjectHideFlags: 0
  m_CorrespondingSourceObject: {fileID: 0}
  m_PrefabInstance: {fileID: 0}
  m_PrefabAsset: {fileID: 0}
  m_GameObject: {fileID: 2076180605}
  m_Enabled: 1
  m_EditorHideFlags: 0
  m_Script: {fileID: 11500000, guid: 6ae20a9ca45fb214d814984e8304a34a, type: 3}
  m_Name: 
  m_EditorClassIdentifier: 
  Destination: 4
  Behavior: 2
  InitialDelay: 0
  From: -15
  To: 15
  Speed: 5
  Ease: 1
  Curve:
    serializedVersion: 2
    m_Curve: []
    m_PreInfinity: 2
    m_PostInfinity: 2
    m_RotationOrder: 4
  TotalCycles: 0
  FinishTimeDebug: 
--- !u!1660057539 &9223372036854775807
SceneRoots:
  m_ObjectHideFlags: 0
  m_Roots:
  - {fileID: 1612900735}
  - {fileID: 287416967}
  - {fileID: 933200360}
  - {fileID: 1781823371}
