%YAML 1.1
%TAG !u! tag:unity3d.com,2011:
--- !u!29 &1
OcclusionCullingSettings:
  m_ObjectHideFlags: 0
  serializedVersion: 2
  m_OcclusionBakeSettings:
    smallestOccluder: 5
    smallestHole: 0.25
    backfaceThreshold: 100
  m_SceneGUID: 00000000000000000000000000000000
  m_OcclusionCullingData: {fileID: 0}
--- !u!104 &2
RenderSettings:
  m_ObjectHideFlags: 0
  serializedVersion: 9
  m_Fog: 0
  m_FogColor: {r: 0.5, g: 0.5, b: 0.5, a: 1}
  m_FogMode: 3
  m_FogDensity: 0.01
  m_LinearFogStart: 0
  m_LinearFogEnd: 300
  m_AmbientSkyColor: {r: 0.212, g: 0.227, b: 0.259, a: 1}
  m_AmbientEquatorColor: {r: 0.114, g: 0.125, b: 0.133, a: 1}
  m_AmbientGroundColor: {r: 0.047, g: 0.043, b: 0.035, a: 1}
  m_AmbientIntensity: 1
  m_AmbientMode: 3
  m_SubtractiveShadowColor: {r: 0.42, g: 0.478, b: 0.627, a: 1}
  m_SkyboxMaterial: {fileID: 0}
  m_HaloStrength: 0.5
  m_FlareStrength: 1
  m_FlareFadeSpeed: 3
  m_HaloTexture: {fileID: 0}
  m_SpotCookie: {fileID: 10001, guid: 0000000000000000e000000000000000, type: 0}
  m_DefaultReflectionMode: 0
  m_DefaultReflectionResolution: 128
  m_ReflectionBounces: 1
  m_ReflectionIntensity: 1
  m_CustomReflection: {fileID: 0}
  m_Sun: {fileID: 0}
  m_IndirectSpecularColor: {r: 0, g: 0, b: 0, a: 1}
  m_UseRadianceAmbientProbe: 0
--- !u!157 &3
LightmapSettings:
  m_ObjectHideFlags: 0
  serializedVersion: 12
  m_GIWorkflowMode: 1
  m_GISettings:
    serializedVersion: 2
    m_BounceScale: 1
    m_IndirectOutputScale: 1
    m_AlbedoBoost: 1
    m_EnvironmentLightingMode: 0
    m_EnableBakedLightmaps: 0
    m_EnableRealtimeLightmaps: 0
  m_LightmapEditorSettings:
    serializedVersion: 12
    m_Resolution: 2
    m_BakeResolution: 40
    m_AtlasSize: 1024
    m_AO: 0
    m_AOMaxDistance: 1
    m_CompAOExponent: 1
    m_CompAOExponentDirect: 0
    m_ExtractAmbientOcclusion: 0
    m_Padding: 2
    m_LightmapParameters: {fileID: 0}
    m_LightmapsBakeMode: 1
    m_TextureCompression: 1
    m_FinalGather: 0
    m_FinalGatherFiltering: 1
    m_FinalGatherRayCount: 256
    m_ReflectionCompression: 2
    m_MixedBakeMode: 1
    m_BakeBackend: 0
    m_PVRSampling: 1
    m_PVRDirectSampleCount: 32
    m_PVRSampleCount: 512
    m_PVRBounces: 2
    m_PVREnvironmentSampleCount: 512
    m_PVREnvironmentReferencePointCount: 2048
    m_PVRFilteringMode: 0
    m_PVRDenoiserTypeDirect: 0
    m_PVRDenoiserTypeIndirect: 0
    m_PVRDenoiserTypeAO: 0
    m_PVRFilterTypeDirect: 0
    m_PVRFilterTypeIndirect: 0
    m_PVRFilterTypeAO: 0
    m_PVREnvironmentMIS: 0
    m_PVRCulling: 1
    m_PVRFilteringGaussRadiusDirect: 1
    m_PVRFilteringGaussRadiusIndirect: 5
    m_PVRFilteringGaussRadiusAO: 2
    m_PVRFilteringAtrousPositionSigmaDirect: 0.5
    m_PVRFilteringAtrousPositionSigmaIndirect: 2
    m_PVRFilteringAtrousPositionSigmaAO: 1
    m_ExportTrainingData: 0
    m_TrainingDataDestination: TrainingData
    m_LightProbeSampleCountMultiplier: 4
  m_LightingDataAsset: {fileID: 0}
  m_LightingSettings: {fileID: 4890085278179872738, guid: 864fe50c91c52f74c929436a2a0be97e, type: 2}
--- !u!196 &4
NavMeshSettings:
  serializedVersion: 2
  m_ObjectHideFlags: 0
  m_BuildSettings:
    serializedVersion: 3
    agentTypeID: 0
    agentRadius: 0.5
    agentHeight: 2
    agentSlope: 45
    agentClimb: 0.4
    ledgeDropHeight: 0
    maxJumpAcrossDistance: 0
    minRegionArea: 2
    manualCellSize: 0
    cellSize: 0.16666667
    manualTileSize: 0
    tileSize: 256
    buildHeightMesh: 0
    maxJobWorkers: 0
    preserveTilesOutsideBounds: 0
    debug:
      m_Flags: 0
  m_NavMeshData: {fileID: 0}
--- !u!1001 &130748119
PrefabInstance:
  m_ObjectHideFlags: 0
  serializedVersion: 2
  m_Modification:
    serializedVersion: 3
    m_TransformParent: {fileID: 1737133794}
    m_Modifications:
    - target: {fileID: 4000011465702616, guid: 5d5a70f9bf23cff40b76aa2464691e73, type: 3}
      propertyPath: m_RootOrder
      value: 0
      objectReference: {fileID: 0}
    - target: {fileID: 4000011465702616, guid: 5d5a70f9bf23cff40b76aa2464691e73, type: 3}
      propertyPath: m_LocalPosition.x
      value: 0
      objectReference: {fileID: 0}
    - target: {fileID: 4000011465702616, guid: 5d5a70f9bf23cff40b76aa2464691e73, type: 3}
      propertyPath: m_LocalPosition.y
      value: 0
      objectReference: {fileID: 0}
    - target: {fileID: 4000011465702616, guid: 5d5a70f9bf23cff40b76aa2464691e73, type: 3}
      propertyPath: m_LocalPosition.z
      value: 0
      objectReference: {fileID: 0}
    - target: {fileID: 4000011465702616, guid: 5d5a70f9bf23cff40b76aa2464691e73, type: 3}
      propertyPath: m_LocalRotation.w
      value: 1
      objectReference: {fileID: 0}
    - target: {fileID: 4000011465702616, guid: 5d5a70f9bf23cff40b76aa2464691e73, type: 3}
      propertyPath: m_LocalRotation.x
      value: 0
      objectReference: {fileID: 0}
    - target: {fileID: 4000011465702616, guid: 5d5a70f9bf23cff40b76aa2464691e73, type: 3}
      propertyPath: m_LocalRotation.y
      value: 0
      objectReference: {fileID: 0}
    - target: {fileID: 4000011465702616, guid: 5d5a70f9bf23cff40b76aa2464691e73, type: 3}
      propertyPath: m_LocalRotation.z
      value: 0
      objectReference: {fileID: 0}
    - target: {fileID: 4000012973986434, guid: 5d5a70f9bf23cff40b76aa2464691e73, type: 3}
      propertyPath: m_LocalRotation.w
      value: 1
      objectReference: {fileID: 0}
    - target: {fileID: 4000012973986434, guid: 5d5a70f9bf23cff40b76aa2464691e73, type: 3}
      propertyPath: m_LocalRotation.z
      value: 0.000008726646
      objectReference: {fileID: 0}
    - target: {fileID: 114000012688441186, guid: 5d5a70f9bf23cff40b76aa2464691e73, type: 3}
      propertyPath: Pitch
      value: -90
      objectReference: {fileID: 0}
    - target: {fileID: 114000012688441186, guid: 5d5a70f9bf23cff40b76aa2464691e73, type: 3}
      propertyPath: autoCenter
      value: 0
      objectReference: {fileID: 0}
    - target: {fileID: 114000012688441186, guid: 5d5a70f9bf23cff40b76aa2464691e73, type: 3}
      propertyPath: SpreadRadius
      value: 1.6
      objectReference: {fileID: 0}
    - target: {fileID: 114000012688441186, guid: 5d5a70f9bf23cff40b76aa2464691e73, type: 3}
      propertyPath: pointDisplay
      value: 0
      objectReference: {fileID: 0}
    - target: {fileID: 114000012688441186, guid: 5d5a70f9bf23cff40b76aa2464691e73, type: 3}
      propertyPath: EmitterAmount
      value: 1
      objectReference: {fileID: 0}
    - target: {fileID: 114000012688441186, guid: 5d5a70f9bf23cff40b76aa2464691e73, type: 3}
      propertyPath: SpreadDegrees
      value: 0
      objectReference: {fileID: 0}
    - target: {fileID: 114000012688441186, guid: 5d5a70f9bf23cff40b76aa2464691e73, type: 3}
      propertyPath: AutoCompRadius
      value: 0
      objectReference: {fileID: 0}
    - target: {fileID: 114000012688441186, guid: 5d5a70f9bf23cff40b76aa2464691e73, type: 3}
      propertyPath: CenterRotation
      value: 0
      objectReference: {fileID: 0}
    - target: {fileID: 114000012688441186, guid: 5d5a70f9bf23cff40b76aa2464691e73, type: 3}
      propertyPath: ExitPointOffset
      value: 0
      objectReference: {fileID: 0}
    - target: {fileID: 114000012688441186, guid: 5d5a70f9bf23cff40b76aa2464691e73, type: 3}
      propertyPath: TriggerAutoFire
      value: 0
      objectReference: {fileID: 0}
    - target: {fileID: 114000012688441186, guid: 5d5a70f9bf23cff40b76aa2464691e73, type: 3}
      propertyPath: AutoRadiusToSprite
      value: 0
      objectReference: {fileID: 0}
    m_RemovedComponents: []
    m_RemovedGameObjects: []
    m_AddedGameObjects:
    - targetCorrespondingSourceObject: {fileID: 4000012973986434, guid: 5d5a70f9bf23cff40b76aa2464691e73, type: 3}
      insertIndex: -1
      addedObject: {fileID: 574369868}
    m_AddedComponents:
    - targetCorrespondingSourceObject: {fileID: 1000013902785618, guid: 5d5a70f9bf23cff40b76aa2464691e73, type: 3}
      insertIndex: -1
      addedObject: {fileID: 301810352}
  m_SourcePrefab: {fileID: 100100000, guid: 5d5a70f9bf23cff40b76aa2464691e73, type: 3}
--- !u!1 &223886296
GameObject:
  m_ObjectHideFlags: 0
  m_CorrespondingSourceObject: {fileID: 0}
  m_PrefabInstance: {fileID: 0}
  m_PrefabAsset: {fileID: 0}
  serializedVersion: 6
  m_Component:
  - component: {fileID: 223886297}
  - component: {fileID: 223886299}
  - component: {fileID: 223886298}
  m_Layer: 0
  m_Name: Point
  m_TagString: Untagged
  m_Icon: {fileID: 0}
  m_NavMeshLayer: 0
  m_StaticEditorFlags: 0
  m_IsActive: 1
--- !u!4 &223886297
Transform:
  m_ObjectHideFlags: 0
  m_CorrespondingSourceObject: {fileID: 0}
  m_PrefabInstance: {fileID: 0}
  m_PrefabAsset: {fileID: 0}
  m_GameObject: {fileID: 223886296}
  serializedVersion: 2
  m_LocalRotation: {x: 0, y: 0, z: 0, w: 1}
  m_LocalPosition: {x: 0, y: 0, z: 0}
  m_LocalScale: {x: 1, y: 1, z: 1}
  m_ConstrainProportionsScale: 0
  m_Children: []
  m_Father: {fileID: 1033997944}
  m_LocalEulerAnglesHint: {x: 0, y: 0, z: 0}
--- !u!114 &223886298
MonoBehaviour:
  m_ObjectHideFlags: 0
  m_CorrespondingSourceObject: {fileID: 0}
  m_PrefabInstance: {fileID: 0}
  m_PrefabAsset: {fileID: 0}
  m_GameObject: {fileID: 223886296}
  m_Enabled: 1
  m_EditorHideFlags: 0
  m_Script: {fileID: 11500000, guid: 6875f8caadce09f4499a8b1facf17c27, type: 3}
  m_Name: 
  m_EditorClassIdentifier: 
  makeNodeOnly: 0
  LocalPitch: 0
  customIndicator: {fileID: 0}
  Shot: {fileID: 1000010161334016, guid: 6ceec300808987147a520c929f10a129, type: 3}
  ShotSpeed: 6
  LocalOffset: 0
  controller: {fileID: 0}
  OnStoppedFiring:
    m_PersistentCalls:
      m_Calls: []
  SpriteColor: {r: 0, g: 1, b: 0.54482746, a: 1}
  SpriteOverride: {fileID: 21300000, guid: 69d8ca3284cb51f49bccbd4f8fe741b1, type: 3}
  ParentToEmitter: 0
  IgnoreGlobalRateScale: 0
  ShotRate: 12
  PauseRate: 100
  PauseLength: 30
  ShotOverlap: 1
  _poolingEnabled: 1
  AutoPool: 0
  AutoPoolOverride: 0
  BankingEnabled: 0
--- !u!212 &223886299
SpriteRenderer:
  m_ObjectHideFlags: 0
  m_CorrespondingSourceObject: {fileID: 0}
  m_PrefabInstance: {fileID: 0}
  m_PrefabAsset: {fileID: 0}
  m_GameObject: {fileID: 223886296}
  m_Enabled: 1
  m_CastShadows: 0
  m_ReceiveShadows: 0
  m_DynamicOccludee: 1
  m_StaticShadowCaster: 0
  m_MotionVectors: 1
  m_LightProbeUsage: 0
  m_ReflectionProbeUsage: 0
  m_RayTracingMode: 0
  m_RayTraceProcedural: 0
  m_RenderingLayerMask: 1
  m_RendererPriority: 0
  m_Materials:
  - {fileID: 10754, guid: 0000000000000000f000000000000000, type: 0}
  m_StaticBatchInfo:
    firstSubMesh: 0
    subMeshCount: 0
  m_StaticBatchRoot: {fileID: 0}
  m_ProbeAnchor: {fileID: 0}
  m_LightProbeVolumeOverride: {fileID: 0}
  m_ScaleInLightmap: 1
  m_ReceiveGI: 1
  m_PreserveUVs: 0
  m_IgnoreNormalsForChartDetection: 0
  m_ImportantGI: 0
  m_StitchLightmapSeams: 1
  m_SelectedEditorRenderState: 0
  m_MinimumChartSize: 4
  m_AutoUVMaxDistance: 0.5
  m_AutoUVMaxAngle: 89
  m_LightmapParameters: {fileID: 0}
  m_SortingLayerID: -520023571
  m_SortingLayer: 0
  m_SortingOrder: 10039
  m_Sprite: {fileID: 21300000, guid: 0028a729cfda88245aba79c93755b4e5, type: 3}
  m_Color: {r: 1, g: 1, b: 1, a: 0.51}
  m_FlipX: 0
  m_FlipY: 0
  m_DrawMode: 0
  m_Size: {x: 1, y: 1}
  m_AdaptiveModeThreshold: 0.5
  m_SpriteTileMode: 0
  m_WasSpriteAssigned: 1
  m_MaskInteraction: 0
  m_SpriteSortPoint: 0
--- !u!1 &281602311
GameObject:
  m_ObjectHideFlags: 0
  m_CorrespondingSourceObject: {fileID: 0}
  m_PrefabInstance: {fileID: 0}
  m_PrefabAsset: {fileID: 0}
  serializedVersion: 6
  m_Component:
  - component: {fileID: 281602312}
  m_Layer: 0
  m_Name: Emitter(Clone)
  m_TagString: Untagged
  m_Icon: {fileID: 0}
  m_NavMeshLayer: 0
  m_StaticEditorFlags: 0
  m_IsActive: 1
--- !u!4 &281602312
Transform:
  m_ObjectHideFlags: 0
  m_CorrespondingSourceObject: {fileID: 0}
  m_PrefabInstance: {fileID: 0}
  m_PrefabAsset: {fileID: 0}
  m_GameObject: {fileID: 281602311}
  serializedVersion: 2
  m_LocalRotation: {x: 0, y: 0, z: 0.819152, w: -0.57357645}
  m_LocalPosition: {x: 0, y: 0, z: 0}
  m_LocalScale: {x: 1, y: 1, z: 1}
  m_ConstrainProportionsScale: 0
  m_Children:
  - {fileID: 1536776626}
  m_Father: {fileID: 2082795809}
  m_LocalEulerAnglesHint: {x: 0, y: 0, z: 0}
--- !u!1 &301810350 stripped
GameObject:
  m_CorrespondingSourceObject: {fileID: 1000013902785618, guid: 5d5a70f9bf23cff40b76aa2464691e73, type: 3}
  m_PrefabInstance: {fileID: 130748119}
  m_PrefabAsset: {fileID: 0}
--- !u!4 &301810351 stripped
Transform:
  m_CorrespondingSourceObject: {fileID: 4000012973986434, guid: 5d5a70f9bf23cff40b76aa2464691e73, type: 3}
  m_PrefabInstance: {fileID: 130748119}
  m_PrefabAsset: {fileID: 0}
--- !u!114 &301810352
MonoBehaviour:
  m_ObjectHideFlags: 0
  m_CorrespondingSourceObject: {fileID: 0}
  m_PrefabInstance: {fileID: 0}
  m_PrefabAsset: {fileID: 0}
  m_GameObject: {fileID: 301810350}
  m_Enabled: 1
  m_EditorHideFlags: 0
  m_Script: {fileID: 11500000, guid: 6ae20a9ca45fb214d814984e8304a34a, type: 3}
  m_Name: 
  m_EditorClassIdentifier: 
  Destination: 1
  Behavior: 1
  InitialDelay: 0
  From: 0
  To: 360
  Speed: 25
  Ease: 0
  Curve:
    serializedVersion: 2
    m_Curve: []
    m_PreInfinity: 2
    m_PostInfinity: 2
    m_RotationOrder: 4
  TotalCycles: 0
  FinishTimeDebug: 
--- !u!1001 &558463733
PrefabInstance:
  m_ObjectHideFlags: 0
  serializedVersion: 2
  m_Modification:
    serializedVersion: 3
    m_TransformParent: {fileID: 1593485517}
    m_Modifications:
    - target: {fileID: 1000011154708926, guid: 5d5a70f9bf23cff40b76aa2464691e73, type: 3}
      propertyPath: m_Name
      value: Origin
      objectReference: {fileID: 0}
    - target: {fileID: 1000013902785618, guid: 5d5a70f9bf23cff40b76aa2464691e73, type: 3}
      propertyPath: m_IsActive
      value: 1
      objectReference: {fileID: 0}
    - target: {fileID: 4000011465702616, guid: 5d5a70f9bf23cff40b76aa2464691e73, type: 3}
      propertyPath: m_RootOrder
      value: 0
      objectReference: {fileID: 0}
    - target: {fileID: 4000011465702616, guid: 5d5a70f9bf23cff40b76aa2464691e73, type: 3}
      propertyPath: m_LocalScale.x
      value: 1
      objectReference: {fileID: 0}
    - target: {fileID: 4000011465702616, guid: 5d5a70f9bf23cff40b76aa2464691e73, type: 3}
      propertyPath: m_LocalScale.y
      value: 1
      objectReference: {fileID: 0}
    - target: {fileID: 4000011465702616, guid: 5d5a70f9bf23cff40b76aa2464691e73, type: 3}
      propertyPath: m_LocalPosition.x
      value: 12.8
      objectReference: {fileID: 0}
    - target: {fileID: 4000011465702616, guid: 5d5a70f9bf23cff40b76aa2464691e73, type: 3}
      propertyPath: m_LocalPosition.y
      value: 0
      objectReference: {fileID: 0}
    - target: {fileID: 4000011465702616, guid: 5d5a70f9bf23cff40b76aa2464691e73, type: 3}
      propertyPath: m_LocalPosition.z
      value: 0
      objectReference: {fileID: 0}
    - target: {fileID: 4000011465702616, guid: 5d5a70f9bf23cff40b76aa2464691e73, type: 3}
      propertyPath: m_LocalRotation.w
      value: 1
      objectReference: {fileID: 0}
    - target: {fileID: 4000011465702616, guid: 5d5a70f9bf23cff40b76aa2464691e73, type: 3}
      propertyPath: m_LocalRotation.x
      value: -0
      objectReference: {fileID: 0}
    - target: {fileID: 4000011465702616, guid: 5d5a70f9bf23cff40b76aa2464691e73, type: 3}
      propertyPath: m_LocalRotation.y
      value: -0
      objectReference: {fileID: 0}
    - target: {fileID: 4000011465702616, guid: 5d5a70f9bf23cff40b76aa2464691e73, type: 3}
      propertyPath: m_LocalRotation.z
      value: -0
      objectReference: {fileID: 0}
    - target: {fileID: 4000012973986434, guid: 5d5a70f9bf23cff40b76aa2464691e73, type: 3}
      propertyPath: m_LocalRotation.w
      value: 0.57356215
      objectReference: {fileID: 0}
    - target: {fileID: 4000012973986434, guid: 5d5a70f9bf23cff40b76aa2464691e73, type: 3}
      propertyPath: m_LocalRotation.z
      value: 0.8191621
      objectReference: {fileID: 0}
    - target: {fileID: 114000012688441186, guid: 5d5a70f9bf23cff40b76aa2464691e73, type: 3}
      propertyPath: origin
      value: 1
      objectReference: {fileID: 0}
    - target: {fileID: 114000012688441186, guid: 5d5a70f9bf23cff40b76aa2464691e73, type: 3}
      propertyPath: PointScale
      value: 1
      objectReference: {fileID: 0}
    - target: {fileID: 114000012688441186, guid: 5d5a70f9bf23cff40b76aa2464691e73, type: 3}
      propertyPath: autoCenter
      value: 0
      objectReference: {fileID: 0}
    - target: {fileID: 114000012688441186, guid: 5d5a70f9bf23cff40b76aa2464691e73, type: 3}
      propertyPath: FireCommand
      value: 2
      objectReference: {fileID: 0}
    - target: {fileID: 114000012688441186, guid: 5d5a70f9bf23cff40b76aa2464691e73, type: 3}
      propertyPath: pointDisplay
      value: 0
      objectReference: {fileID: 0}
    - target: {fileID: 114000012688441186, guid: 5d5a70f9bf23cff40b76aa2464691e73, type: 3}
      propertyPath: EmitterAmount
      value: 3
      objectReference: {fileID: 0}
    - target: {fileID: 114000012688441186, guid: 5d5a70f9bf23cff40b76aa2464691e73, type: 3}
      propertyPath: SpreadDegrees
      value: 125
      objectReference: {fileID: 0}
    - target: {fileID: 114000012688441186, guid: 5d5a70f9bf23cff40b76aa2464691e73, type: 3}
      propertyPath: CenterRotation
      value: 110.001
      objectReference: {fileID: 0}
    - target: {fileID: 114000012688441186, guid: 5d5a70f9bf23cff40b76aa2464691e73, type: 3}
      propertyPath: ExitPointOffset
      value: 0
      objectReference: {fileID: 0}
    - target: {fileID: 114000012688441186, guid: 5d5a70f9bf23cff40b76aa2464691e73, type: 3}
      propertyPath: TriggerAutoFire
      value: 1
      objectReference: {fileID: 0}
    m_RemovedComponents: []
    m_RemovedGameObjects: []
    m_AddedGameObjects:
    - targetCorrespondingSourceObject: {fileID: 4000012973986434, guid: 5d5a70f9bf23cff40b76aa2464691e73, type: 3}
      insertIndex: -1
      addedObject: {fileID: 1835100653}
    - targetCorrespondingSourceObject: {fileID: 4000012973986434, guid: 5d5a70f9bf23cff40b76aa2464691e73, type: 3}
      insertIndex: -1
      addedObject: {fileID: 281602312}
    - targetCorrespondingSourceObject: {fileID: 4000012973986434, guid: 5d5a70f9bf23cff40b76aa2464691e73, type: 3}
      insertIndex: -1
      addedObject: {fileID: 1033997944}
    m_AddedComponents:
    - targetCorrespondingSourceObject: {fileID: 1000013902785618, guid: 5d5a70f9bf23cff40b76aa2464691e73, type: 3}
      insertIndex: -1
      addedObject: {fileID: 2082795810}
  m_SourcePrefab: {fileID: 100100000, guid: 5d5a70f9bf23cff40b76aa2464691e73, type: 3}
--- !u!1 &574369867
GameObject:
  m_ObjectHideFlags: 0
  m_CorrespondingSourceObject: {fileID: 0}
  m_PrefabInstance: {fileID: 0}
  m_PrefabAsset: {fileID: 0}
  serializedVersion: 6
  m_Component:
  - component: {fileID: 574369868}
  m_Layer: 0
  m_Name: Emitter(Clone)
  m_TagString: Untagged
  m_Icon: {fileID: 0}
  m_NavMeshLayer: 0
  m_StaticEditorFlags: 0
  m_IsActive: 1
--- !u!4 &574369868
Transform:
  m_ObjectHideFlags: 0
  m_CorrespondingSourceObject: {fileID: 0}
  m_PrefabInstance: {fileID: 0}
  m_PrefabAsset: {fileID: 0}
  m_GameObject: {fileID: 574369867}
  serializedVersion: 2
  m_LocalRotation: {x: 0, y: 0, z: 0, w: 1}
  m_LocalPosition: {x: 0, y: 0, z: 0}
  m_LocalScale: {x: 1, y: 1, z: 1}
  m_ConstrainProportionsScale: 0
  m_Children:
  - {fileID: 1593485517}
  m_Father: {fileID: 301810351}
  m_LocalEulerAnglesHint: {x: 0, y: 0, z: 0}
--- !u!4 &737394547 stripped
Transform:
  m_CorrespondingSourceObject: {fileID: 4000011465702616, guid: 5d5a70f9bf23cff40b76aa2464691e73, type: 3}
  m_PrefabInstance: {fileID: 558463733}
  m_PrefabAsset: {fileID: 0}
--- !u!1 &1033997943
GameObject:
  m_ObjectHideFlags: 0
  m_CorrespondingSourceObject: {fileID: 0}
  m_PrefabInstance: {fileID: 0}
  m_PrefabAsset: {fileID: 0}
  serializedVersion: 6
  m_Component:
  - component: {fileID: 1033997944}
  m_Layer: 0
  m_Name: Emitter(Clone)
  m_TagString: Untagged
  m_Icon: {fileID: 0}
  m_NavMeshLayer: 0
  m_StaticEditorFlags: 0
  m_IsActive: 1
--- !u!4 &1033997944
Transform:
  m_ObjectHideFlags: 0
  m_CorrespondingSourceObject: {fileID: 0}
  m_PrefabInstance: {fileID: 0}
  m_PrefabAsset: {fileID: 0}
  m_GameObject: {fileID: 1033997943}
  serializedVersion: 2
  m_LocalRotation: {x: 0, y: 0, z: -0.13052627, w: -0.9914449}
  m_LocalPosition: {x: 0, y: 0, z: 0}
  m_LocalScale: {x: 1, y: 1, z: 1}
  m_ConstrainProportionsScale: 0
  m_Children:
  - {fileID: 223886297}
  m_Father: {fileID: 2082795809}
  m_LocalEulerAnglesHint: {x: 0, y: 0, z: 0}
--- !u!1 &1536776625
GameObject:
  m_ObjectHideFlags: 0
  m_CorrespondingSourceObject: {fileID: 0}
  m_PrefabInstance: {fileID: 0}
  m_PrefabAsset: {fileID: 0}
  serializedVersion: 6
  m_Component:
  - component: {fileID: 1536776626}
  - component: {fileID: 1536776628}
  - component: {fileID: 1536776627}
  m_Layer: 0
  m_Name: Point
  m_TagString: Untagged
  m_Icon: {fileID: 0}
  m_NavMeshLayer: 0
  m_StaticEditorFlags: 0
  m_IsActive: 1
--- !u!4 &1536776626
Transform:
  m_ObjectHideFlags: 0
  m_CorrespondingSourceObject: {fileID: 0}
  m_PrefabInstance: {fileID: 0}
  m_PrefabAsset: {fileID: 0}
  m_GameObject: {fileID: 1536776625}
  serializedVersion: 2
  m_LocalRotation: {x: 0, y: 0, z: 0, w: 1}
  m_LocalPosition: {x: 0, y: 0, z: 0}
  m_LocalScale: {x: 1, y: 1, z: 1}
  m_ConstrainProportionsScale: 0
  m_Children: []
  m_Father: {fileID: 281602312}
  m_LocalEulerAnglesHint: {x: 0, y: 0, z: 0}
--- !u!114 &1536776627
MonoBehaviour:
  m_ObjectHideFlags: 0
  m_CorrespondingSourceObject: {fileID: 0}
  m_PrefabInstance: {fileID: 0}
  m_PrefabAsset: {fileID: 0}
  m_GameObject: {fileID: 1536776625}
  m_Enabled: 1
  m_EditorHideFlags: 0
  m_Script: {fileID: 11500000, guid: 6875f8caadce09f4499a8b1facf17c27, type: 3}
  m_Name: 
  m_EditorClassIdentifier: 
  makeNodeOnly: 0
  LocalPitch: 0
  customIndicator: {fileID: 0}
  Shot: {fileID: 1000010161334016, guid: 6ceec300808987147a520c929f10a129, type: 3}
  ShotSpeed: 6
  LocalOffset: 0
  controller: {fileID: 0}
  OnStoppedFiring:
    m_PersistentCalls:
      m_Calls: []
  SpriteColor: {r: 0.9034482, g: 1, b: 0, a: 1}
  SpriteOverride: {fileID: 21300000, guid: 69d8ca3284cb51f49bccbd4f8fe741b1, type: 3}
  ParentToEmitter: 0
  IgnoreGlobalRateScale: 0
  ShotRate: 12
  PauseRate: 100
  PauseLength: 30
  ShotOverlap: 1
  _poolingEnabled: 1
  AutoPool: 0
  AutoPoolOverride: 0
  BankingEnabled: 0
--- !u!212 &1536776628
SpriteRenderer:
  m_ObjectHideFlags: 0
  m_CorrespondingSourceObject: {fileID: 0}
  m_PrefabInstance: {fileID: 0}
  m_PrefabAsset: {fileID: 0}
  m_GameObject: {fileID: 1536776625}
  m_Enabled: 1
  m_CastShadows: 0
  m_ReceiveShadows: 0
  m_DynamicOccludee: 1
  m_StaticShadowCaster: 0
  m_MotionVectors: 1
  m_LightProbeUsage: 0
  m_ReflectionProbeUsage: 0
  m_RayTracingMode: 0
  m_RayTraceProcedural: 0
  m_RenderingLayerMask: 1
  m_RendererPriority: 0
  m_Materials:
  - {fileID: 10754, guid: 0000000000000000f000000000000000, type: 0}
  m_StaticBatchInfo:
    firstSubMesh: 0
    subMeshCount: 0
  m_StaticBatchRoot: {fileID: 0}
  m_ProbeAnchor: {fileID: 0}
  m_LightProbeVolumeOverride: {fileID: 0}
  m_ScaleInLightmap: 1
  m_ReceiveGI: 1
  m_PreserveUVs: 0
  m_IgnoreNormalsForChartDetection: 0
  m_ImportantGI: 0
  m_StitchLightmapSeams: 1
  m_SelectedEditorRenderState: 0
  m_MinimumChartSize: 4
  m_AutoUVMaxDistance: 0.5
  m_AutoUVMaxAngle: 89
  m_LightmapParameters: {fileID: 0}
  m_SortingLayerID: -520023571
  m_SortingLayer: 0
  m_SortingOrder: 10029
  m_Sprite: {fileID: 21300000, guid: 0028a729cfda88245aba79c93755b4e5, type: 3}
  m_Color: {r: 1, g: 1, b: 1, a: 0.51}
  m_FlipX: 0
  m_FlipY: 0
  m_DrawMode: 0
  m_Size: {x: 1, y: 1}
  m_AdaptiveModeThreshold: 0.5
  m_SpriteTileMode: 0
  m_WasSpriteAssigned: 1
  m_MaskInteraction: 0
  m_SpriteSortPoint: 0
--- !u!1 &1552062013
GameObject:
  m_ObjectHideFlags: 0
  m_CorrespondingSourceObject: {fileID: 0}
  m_PrefabInstance: {fileID: 0}
  m_PrefabAsset: {fileID: 0}
  serializedVersion: 6
  m_Component:
  - component: {fileID: 1552062014}
  - component: {fileID: 1552062016}
  - component: {fileID: 1552062015}
  m_Layer: 0
  m_Name: Point
  m_TagString: Untagged
  m_Icon: {fileID: 0}
  m_NavMeshLayer: 0
  m_StaticEditorFlags: 0
  m_IsActive: 1
--- !u!4 &1552062014
Transform:
  m_ObjectHideFlags: 0
  m_CorrespondingSourceObject: {fileID: 0}
  m_PrefabInstance: {fileID: 0}
  m_PrefabAsset: {fileID: 0}
  m_GameObject: {fileID: 1552062013}
  serializedVersion: 2
  m_LocalRotation: {x: 0, y: 0, z: 0, w: 1}
  m_LocalPosition: {x: 0, y: 0, z: 0}
  m_LocalScale: {x: 1, y: 1, z: 1}
  m_ConstrainProportionsScale: 0
  m_Children: []
  m_Father: {fileID: 1835100653}
  m_LocalEulerAnglesHint: {x: 0, y: 0, z: 0}
--- !u!114 &1552062015
MonoBehaviour:
  m_ObjectHideFlags: 0
  m_CorrespondingSourceObject: {fileID: 0}
  m_PrefabInstance: {fileID: 0}
  m_PrefabAsset: {fileID: 0}
  m_GameObject: {fileID: 1552062013}
  m_Enabled: 1
  m_EditorHideFlags: 0
  m_Script: {fileID: 11500000, guid: 6875f8caadce09f4499a8b1facf17c27, type: 3}
  m_Name: 
  m_EditorClassIdentifier: 
  makeNodeOnly: 0
  LocalPitch: 0
  customIndicator: {fileID: 0}
  Shot: {fileID: 1000010161334016, guid: 6ceec300808987147a520c929f10a129, type: 3}
  ShotSpeed: 6
  LocalOffset: 0
  controller: {fileID: 0}
  OnStoppedFiring:
    m_PersistentCalls:
      m_Calls: []
  SpriteColor: {r: 1, g: 1, b: 1, a: 1}
  SpriteOverride: {fileID: 21300000, guid: 69d8ca3284cb51f49bccbd4f8fe741b1, type: 3}
  ParentToEmitter: 0
  IgnoreGlobalRateScale: 0
  ShotRate: 12
  PauseRate: 100
  PauseLength: 30
  ShotOverlap: 1
  _poolingEnabled: 1
  AutoPool: 0
  AutoPoolOverride: 0
  BankingEnabled: 0
--- !u!212 &1552062016
SpriteRenderer:
  m_ObjectHideFlags: 0
  m_CorrespondingSourceObject: {fileID: 0}
  m_PrefabInstance: {fileID: 0}
  m_PrefabAsset: {fileID: 0}
  m_GameObject: {fileID: 1552062013}
  m_Enabled: 1
  m_CastShadows: 0
  m_ReceiveShadows: 0
  m_DynamicOccludee: 1
  m_StaticShadowCaster: 0
  m_MotionVectors: 1
  m_LightProbeUsage: 0
  m_ReflectionProbeUsage: 0
  m_RayTracingMode: 0
  m_RayTraceProcedural: 0
  m_RenderingLayerMask: 1
  m_RendererPriority: 0
  m_Materials:
  - {fileID: 10754, guid: 0000000000000000f000000000000000, type: 0}
  m_StaticBatchInfo:
    firstSubMesh: 0
    subMeshCount: 0
  m_StaticBatchRoot: {fileID: 0}
  m_ProbeAnchor: {fileID: 0}
  m_LightProbeVolumeOverride: {fileID: 0}
  m_ScaleInLightmap: 1
  m_ReceiveGI: 1
  m_PreserveUVs: 0
  m_IgnoreNormalsForChartDetection: 0
  m_ImportantGI: 0
  m_StitchLightmapSeams: 1
  m_SelectedEditorRenderState: 0
  m_MinimumChartSize: 4
  m_AutoUVMaxDistance: 0.5
  m_AutoUVMaxAngle: 89
  m_LightmapParameters: {fileID: 0}
  m_SortingLayerID: -520023571
  m_SortingLayer: 0
  m_SortingOrder: 10019
  m_Sprite: {fileID: 21300000, guid: 0028a729cfda88245aba79c93755b4e5, type: 3}
  m_Color: {r: 1, g: 1, b: 1, a: 0.51}
  m_FlipX: 0
  m_FlipY: 0
  m_DrawMode: 0
  m_Size: {x: 1, y: 1}
  m_AdaptiveModeThreshold: 0.5
  m_SpriteTileMode: 0
  m_WasSpriteAssigned: 1
  m_MaskInteraction: 0
  m_SpriteSortPoint: 0
--- !u!1 &1593485516
GameObject:
  m_ObjectHideFlags: 0
  m_CorrespondingSourceObject: {fileID: 0}
  m_PrefabInstance: {fileID: 0}
  m_PrefabAsset: {fileID: 0}
  serializedVersion: 6
  m_Component:
  - component: {fileID: 1593485517}
  - component: {fileID: 1593485519}
  - component: {fileID: 1593485518}
  m_Layer: 0
  m_Name: Point
  m_TagString: Untagged
  m_Icon: {fileID: 0}
  m_NavMeshLayer: 0
  m_StaticEditorFlags: 0
  m_IsActive: 1
--- !u!4 &1593485517
Transform:
  m_ObjectHideFlags: 0
  m_CorrespondingSourceObject: {fileID: 0}
  m_PrefabInstance: {fileID: 0}
  m_PrefabAsset: {fileID: 0}
  m_GameObject: {fileID: 1593485516}
  serializedVersion: 2
  m_LocalRotation: {x: 0, y: 0, z: -0.7071068, w: 0.7071068}
  m_LocalPosition: {x: 1.6, y: 0, z: 0}
  m_LocalScale: {x: 0.2, y: 0.2, z: 1}
  m_ConstrainProportionsScale: 0
  m_Children:
  - {fileID: 737394547}
  m_Father: {fileID: 574369868}
  m_LocalEulerAnglesHint: {x: 0, y: 0, z: 0}
--- !u!114 &1593485518
MonoBehaviour:
  m_ObjectHideFlags: 0
  m_CorrespondingSourceObject: {fileID: 0}
  m_PrefabInstance: {fileID: 0}
  m_PrefabAsset: {fileID: 0}
  m_GameObject: {fileID: 1593485516}
  m_Enabled: 1
  m_EditorHideFlags: 0
  m_Script: {fileID: 11500000, guid: 6875f8caadce09f4499a8b1facf17c27, type: 3}
  m_Name: 
  m_EditorClassIdentifier: 
  makeNodeOnly: 1
  LocalPitch: 0
  customIndicator: {fileID: 0}
  Shot: {fileID: 1000010161334016, guid: 6ceec300808987147a520c929f10a129, type: 3}
  ShotSpeed: 30
  LocalOffset: 0
  controller: {fileID: 0}
  OnStoppedFiring:
    m_PersistentCalls:
      m_Calls: []
  SpriteColor: {r: 1, g: 1, b: 1, a: 1}
  SpriteOverride: {fileID: 0}
  ParentToEmitter: 0
  IgnoreGlobalRateScale: 0
  ShotRate: 14
  PauseRate: 100
  PauseLength: 30
  ShotOverlap: 1
  _poolingEnabled: 1
  AutoPool: 0
  AutoPoolOverride: 0
  BankingEnabled: 0
--- !u!212 &1593485519
SpriteRenderer:
  m_ObjectHideFlags: 0
  m_CorrespondingSourceObject: {fileID: 0}
  m_PrefabInstance: {fileID: 0}
  m_PrefabAsset: {fileID: 0}
  m_GameObject: {fileID: 1593485516}
  m_Enabled: 1
  m_CastShadows: 0
  m_ReceiveShadows: 0
  m_DynamicOccludee: 1
  m_StaticShadowCaster: 0
  m_MotionVectors: 1
  m_LightProbeUsage: 0
  m_ReflectionProbeUsage: 0
  m_RayTracingMode: 0
  m_RayTraceProcedural: 0
  m_RenderingLayerMask: 1
  m_RendererPriority: 0
  m_Materials:
  - {fileID: 10754, guid: 0000000000000000f000000000000000, type: 0}
  m_StaticBatchInfo:
    firstSubMesh: 0
    subMeshCount: 0
  m_StaticBatchRoot: {fileID: 0}
  m_ProbeAnchor: {fileID: 0}
  m_LightProbeVolumeOverride: {fileID: 0}
  m_ScaleInLightmap: 1
  m_ReceiveGI: 1
  m_PreserveUVs: 0
  m_IgnoreNormalsForChartDetection: 0
  m_ImportantGI: 0
  m_StitchLightmapSeams: 1
  m_SelectedEditorRenderState: 0
  m_MinimumChartSize: 4
  m_AutoUVMaxDistance: 0.5
  m_AutoUVMaxAngle: 89
  m_LightmapParameters: {fileID: 0}
  m_SortingLayerID: -520023571
  m_SortingLayer: 0
  m_SortingOrder: 10009
  m_Sprite: {fileID: 21300000, guid: 4ec72e855a225c942bf1ab89aa909a15, type: 3}
  m_Color: {r: 1, g: 1, b: 1, a: 0.51}
  m_FlipX: 0
  m_FlipY: 0
  m_DrawMode: 0
  m_Size: {x: 1, y: 1}
  m_AdaptiveModeThreshold: 0.5
  m_SpriteTileMode: 0
  m_WasSpriteAssigned: 1
  m_MaskInteraction: 0
  m_SpriteSortPoint: 0
--- !u!1 &1612900730
GameObject:
  m_ObjectHideFlags: 0
  m_CorrespondingSourceObject: {fileID: 0}
  m_PrefabInstance: {fileID: 0}
  m_PrefabAsset: {fileID: 0}
  serializedVersion: 6
  m_Component:
  - component: {fileID: 1612900735}
  - component: {fileID: 1612900734}
  - component: {fileID: 1612900732}
  - component: {fileID: 1612900731}
  - component: {fileID: 1612900736}
  m_Layer: 0
  m_Name: Main Camera
  m_TagString: MainCamera
  m_Icon: {fileID: 0}
  m_NavMeshLayer: 0
  m_StaticEditorFlags: 0
  m_IsActive: 1
--- !u!81 &1612900731
AudioListener:
  m_ObjectHideFlags: 0
  m_CorrespondingSourceObject: {fileID: 0}
  m_PrefabInstance: {fileID: 0}
  m_PrefabAsset: {fileID: 0}
  m_GameObject: {fileID: 1612900730}
  m_Enabled: 1
--- !u!124 &1612900732
Behaviour:
  m_ObjectHideFlags: 0
  m_CorrespondingSourceObject: {fileID: 0}
  m_PrefabInstance: {fileID: 0}
  m_PrefabAsset: {fileID: 0}
  m_GameObject: {fileID: 1612900730}
  m_Enabled: 1
--- !u!20 &1612900734
Camera:
  m_ObjectHideFlags: 0
  m_CorrespondingSourceObject: {fileID: 0}
  m_PrefabInstance: {fileID: 0}
  m_PrefabAsset: {fileID: 0}
  m_GameObject: {fileID: 1612900730}
  m_Enabled: 1
  serializedVersion: 2
  m_ClearFlags: 1
  m_BackGroundColor: {r: 0.19215687, g: 0.3019608, b: 0.4745098, a: 0}
  m_projectionMatrixMode: 1
  m_GateFitMode: 2
  m_FOVAxisMode: 0
  m_Iso: 200
  m_ShutterSpeed: 0.005
  m_Aperture: 16
  m_FocusDistance: 10
  m_FocalLength: 50
  m_BladeCount: 5
  m_Curvature: {x: 2, y: 11}
  m_BarrelClipping: 0.25
  m_Anamorphism: 0
  m_SensorSize: {x: 36, y: 24}
  m_LensShift: {x: 0, y: 0}
  m_NormalizedViewPortRect:
    serializedVersion: 2
    x: 0
    y: 0
    width: 1
    height: 1
  near clip plane: 0.3
  far clip plane: 1000
  field of view: 60
  orthographic: 1
  orthographic size: 18
  m_Depth: -1
  m_CullingMask:
    serializedVersion: 2
    m_Bits: 4294967295
  m_RenderingPath: -1
  m_TargetTexture: {fileID: 0}
  m_TargetDisplay: 0
  m_TargetEye: 3
  m_HDR: 0
  m_AllowMSAA: 1
  m_AllowDynamicResolution: 0
  m_ForceIntoRT: 0
  m_OcclusionCulling: 1
  m_StereoConvergence: 10
  m_StereoSeparation: 0.022
--- !u!4 &1612900735
Transform:
  m_ObjectHideFlags: 0
  m_CorrespondingSourceObject: {fileID: 0}
  m_PrefabInstance: {fileID: 0}
  m_PrefabAsset: {fileID: 0}
  m_GameObject: {fileID: 1612900730}
  serializedVersion: 2
  m_LocalRotation: {x: 0, y: 0, z: 0, w: 1}
  m_LocalPosition: {x: 0, y: 0, z: -10}
  m_LocalScale: {x: 1, y: 1, z: 1}
  m_ConstrainProportionsScale: 0
  m_Children: []
  m_Father: {fileID: 0}
  m_LocalEulerAnglesHint: {x: 0, y: 0, z: 0}
--- !u!114 &1612900736
MonoBehaviour:
  m_ObjectHideFlags: 0
  m_CorrespondingSourceObject: {fileID: 0}
  m_PrefabInstance: {fileID: 0}
  m_PrefabAsset: {fileID: 0}
  m_GameObject: {fileID: 1612900730}
  m_Enabled: 1
  m_EditorHideFlags: 0
  m_Script: {fileID: 11500000, guid: f3614facfe7ba7a47ab05a9a5ebf31c2, type: 3}
  m_Name: 
  m_EditorClassIdentifier: 
  DemoVersion: 1
  SuppressWarning: 0
--- !u!4 &1657244569 stripped
Transform:
  m_CorrespondingSourceObject: {fileID: 4000011465702616, guid: 5d5a70f9bf23cff40b76aa2464691e73, type: 3}
  m_PrefabInstance: {fileID: 130748119}
  m_PrefabAsset: {fileID: 0}
--- !u!1 &1737133793
GameObject:
  m_ObjectHideFlags: 0
  m_CorrespondingSourceObject: {fileID: 0}
  m_PrefabInstance: {fileID: 0}
  m_PrefabAsset: {fileID: 0}
  serializedVersion: 6
  m_Component:
  - component: {fileID: 1737133794}
  m_Layer: 0
  m_Name: ColorSpiral
  m_TagString: Untagged
  m_Icon: {fileID: 0}
  m_NavMeshLayer: 0
  m_StaticEditorFlags: 0
  m_IsActive: 1
--- !u!4 &1737133794
Transform:
  m_ObjectHideFlags: 0
  m_CorrespondingSourceObject: {fileID: 0}
  m_PrefabInstance: {fileID: 0}
  m_PrefabAsset: {fileID: 0}
  m_GameObject: {fileID: 1737133793}
  serializedVersion: 2
  m_LocalRotation: {x: 0, y: 0, z: 0, w: 1}
  m_LocalPosition: {x: -2, y: 7, z: 0}
  m_LocalScale: {x: 1, y: 1, z: 1}
  m_ConstrainProportionsScale: 0
  m_Children:
  - {fileID: 1657244569}
  m_Father: {fileID: 0}
  m_LocalEulerAnglesHint: {x: 0, y: 0, z: 0}
--- !u!1 &1835100652
GameObject:
  m_ObjectHideFlags: 0
  m_CorrespondingSourceObject: {fileID: 0}
  m_PrefabInstance: {fileID: 0}
  m_PrefabAsset: {fileID: 0}
  serializedVersion: 6
  m_Component:
  - component: {fileID: 1835100653}
  m_Layer: 0
  m_Name: Emitter(Clone)
  m_TagString: Untagged
  m_Icon: {fileID: 0}
  m_NavMeshLayer: 0
  m_StaticEditorFlags: 0
  m_IsActive: 1
--- !u!4 &1835100653
Transform:
  m_ObjectHideFlags: 0
  m_CorrespondingSourceObject: {fileID: 0}
  m_PrefabInstance: {fileID: 0}
  m_PrefabAsset: {fileID: 0}
  m_GameObject: {fileID: 1835100652}
  serializedVersion: 2
  m_LocalRotation: {x: 0, y: 0, z: 0.8870109, w: 0.4617486}
  m_LocalPosition: {x: 0, y: 0, z: 0}
  m_LocalScale: {x: 1, y: 1, z: 1}
  m_ConstrainProportionsScale: 0
  m_Children:
  - {fileID: 1552062014}
  m_Father: {fileID: 2082795809}
  m_LocalEulerAnglesHint: {x: 0, y: 0, z: 0}
--- !u!1 &2082795808 stripped
GameObject:
  m_CorrespondingSourceObject: {fileID: 1000013902785618, guid: 5d5a70f9bf23cff40b76aa2464691e73, type: 3}
  m_PrefabInstance: {fileID: 558463733}
  m_PrefabAsset: {fileID: 0}
--- !u!4 &2082795809 stripped
Transform:
  m_CorrespondingSourceObject: {fileID: 4000012973986434, guid: 5d5a70f9bf23cff40b76aa2464691e73, type: 3}
  m_PrefabInstance: {fileID: 558463733}
  m_PrefabAsset: {fileID: 0}
--- !u!114 &2082795810
MonoBehaviour:
  m_ObjectHideFlags: 0
  m_CorrespondingSourceObject: {fileID: 0}
  m_PrefabInstance: {fileID: 0}
  m_PrefabAsset: {fileID: 0}
  m_GameObject: {fileID: 2082795808}
  m_Enabled: 1
  m_EditorHideFlags: 0
  m_Script: {fileID: 11500000, guid: 6ae20a9ca45fb214d814984e8304a34a, type: 3}
  m_Name: 
  m_EditorClassIdentifier: 
  Destination: 4
  Behavior: 1
  InitialDelay: 0
  From: 110
  To: 360
  Speed: -150
  Ease: 0
  Curve:
    serializedVersion: 2
    m_Curve: []
    m_PreInfinity: 2
    m_PostInfinity: 2
    m_RotationOrder: 4
  TotalCycles: 0
  FinishTimeDebug: 
--- !u!1660057539 &9223372036854775807
SceneRoots:
  m_ObjectHideFlags: 0
  m_Roots:
  - {fileID: 1612900735}
  - {fileID: 1737133794}
