%YAML 1.1
%TAG !u! tag:unity3d.com,2011:
--- !u!74 &7400000
AnimationClip:
  m_ObjectHideFlags: 0
  m_CorrespondingSourceObject: {fileID: 0}
  m_PrefabInstance: {fileID: 0}
  m_PrefabAsset: {fileID: 0}
  m_Name: ItemSpeed
  serializedVersion: 7
  m_Legacy: 0
  m_Compressed: 0
  m_UseHighQualityCurve: 1
  m_RotationCurves: []
  m_CompressedRotationCurves: []
  m_EulerCurves: []
  m_PositionCurves: []
  m_ScaleCurves: []
  m_FloatCurves: []
  m_PPtrCurves:
  - serializedVersion: 2
    curve:
    - time: 0
      value: {fileID: 21300000, guid: 3cc2791d2b663d245b26da62b0f9882f, type: 3}
    - time: 0.05
      value: {fileID: 21300000, guid: 3fa3a08dfd23e094fbb45eadf0bfab0b, type: 3}
    - time: 0.1
      value: {fileID: 21300000, guid: dc7ef3de405bd7340a924a7ded96d95e, type: 3}
    - time: 0.15
      value: {fileID: 21300000, guid: f008c2a6e3ecf40428f6da8b3b976a64, type: 3}
    - time: 0.2
      value: {fileID: 21300000, guid: 286fe1aa02326024bb4b332327dbaec3, type: 3}
    - time: 0.25
      value: {fileID: 21300000, guid: 3245cfe8f82d0c94285e7c39d61e418c, type: 3}
    - time: 0.3
      value: {fileID: 21300000, guid: 1e311e78a0be14c40bd1336c41aee347, type: 3}
    - time: 0.35
      value: {fileID: 21300000, guid: d6626dae727521e4b9e8c46f7e90af7b, type: 3}
    - time: 0.4
      value: {fileID: 21300000, guid: 25625d3f19b91d2448ac0578bb7aa8a7, type: 3}
    - time: 0.43333334
      value: {fileID: 21300000, guid: d144acde3f8e3dd4a808adc7222fbe61, type: 3}
    - time: 0.48333332
      value: {fileID: 21300000, guid: 9c94da922b14ba541b1d3488859d1650, type: 3}
    - time: 0.53333336
      value: {fileID: 21300000, guid: cdd99f3cf5361d7408d3bf6e8609fcbd, type: 3}
    - time: 0.5833333
      value: {fileID: 21300000, guid: fd9c5b238105cd54daef782a4788f109, type: 3}
    - time: 0.6333333
      value: {fileID: 21300000, guid: 3e6758b9b8c2b7849aa454d78a1e10ae, type: 3}
    - time: 0.68333334
      value: {fileID: 21300000, guid: 6d6c7ca097b143f41a1c09f752e9b720, type: 3}
    - time: 0.73333335
      value: {fileID: 21300000, guid: 8616ced3ba96acf4ebfbc9986ba26abe, type: 3}
    - time: 0.78333336
      value: {fileID: 21300000, guid: c3dbc44d5bc4e704c9230905f096f702, type: 3}
    - time: 0.8333333
      value: {fileID: 21300000, guid: 35ed65df2b94052489f18bdb6fb19144, type: 3}
    attribute: m_Sprite
    path: 
    classID: 212
    script: {fileID: 0}
    flags: 2
  m_SampleRate: 60
  m_WrapMode: 0
  m_Bounds:
    m_Center: {x: 0, y: 0, z: 0}
    m_Extent: {x: 0, y: 0, z: 0}
  m_ClipBindingConstant:
    genericBindings:
    - serializedVersion: 2
      path: 0
      attribute: 0
      script: {fileID: 0}
      typeID: 212
      customType: 23
      isPPtrCurve: 1
      isIntCurve: 0
      isSerializeReferenceCurve: 0
    pptrCurveMapping:
    - {fileID: 21300000, guid: 3cc2791d2b663d245b26da62b0f9882f, type: 3}
    - {fileID: 21300000, guid: 3fa3a08dfd23e094fbb45eadf0bfab0b, type: 3}
    - {fileID: 21300000, guid: dc7ef3de405bd7340a924a7ded96d95e, type: 3}
    - {fileID: 21300000, guid: f008c2a6e3ecf40428f6da8b3b976a64, type: 3}
    - {fileID: 21300000, guid: 286fe1aa02326024bb4b332327dbaec3, type: 3}
    - {fileID: 21300000, guid: 3245cfe8f82d0c94285e7c39d61e418c, type: 3}
    - {fileID: 21300000, guid: 1e311e78a0be14c40bd1336c41aee347, type: 3}
    - {fileID: 21300000, guid: d6626dae727521e4b9e8c46f7e90af7b, type: 3}
    - {fileID: 21300000, guid: 25625d3f19b91d2448ac0578bb7aa8a7, type: 3}
    - {fileID: 21300000, guid: d144acde3f8e3dd4a808adc7222fbe61, type: 3}
    - {fileID: 21300000, guid: 9c94da922b14ba541b1d3488859d1650, type: 3}
    - {fileID: 21300000, guid: cdd99f3cf5361d7408d3bf6e8609fcbd, type: 3}
    - {fileID: 21300000, guid: fd9c5b238105cd54daef782a4788f109, type: 3}
    - {fileID: 21300000, guid: 3e6758b9b8c2b7849aa454d78a1e10ae, type: 3}
    - {fileID: 21300000, guid: 6d6c7ca097b143f41a1c09f752e9b720, type: 3}
    - {fileID: 21300000, guid: 8616ced3ba96acf4ebfbc9986ba26abe, type: 3}
    - {fileID: 21300000, guid: c3dbc44d5bc4e704c9230905f096f702, type: 3}
    - {fileID: 21300000, guid: 35ed65df2b94052489f18bdb6fb19144, type: 3}
  m_AnimationClipSettings:
    serializedVersion: 2
    m_AdditiveReferencePoseClip: {fileID: 0}
    m_AdditiveReferencePoseTime: 0
    m_StartTime: 0
    m_StopTime: 0.84999996
    m_OrientationOffsetY: 0
    m_Level: 0
    m_CycleOffset: 0
    m_HasAdditiveReferencePose: 0
    m_LoopTime: 1
    m_LoopBlend: 0
    m_LoopBlendOrientation: 0
    m_LoopBlendPositionY: 0
    m_LoopBlendPositionXZ: 0
    m_KeepOriginalOrientation: 0
    m_KeepOriginalPositionY: 1
    m_KeepOriginalPositionXZ: 0
    m_HeightFromFeet: 0
    m_Mirror: 0
  m_EditorCurves: []
  m_EulerEditorCurves: []
  m_HasGenericRootTransform: 0
  m_HasMotionFloatCurves: 0
  m_Events: []
